\relax 
\providecommand\hyper@newdestlabel[2]{}
\providecommand\babel@aux[2]{}
\@nameuse{bbl@beforestart}
\providecommand\HyperFirstAtBeginDocument{\AtBeginDocument}
\HyperFirstAtBeginDocument{\ifx\hyper@anchor\@undefined
\global\let\oldcontentsline\contentsline
\gdef\contentsline#1#2#3#4{\oldcontentsline{#1}{#2}{#3}}
\global\let\oldnewlabel\newlabel
\gdef\newlabel#1#2{\newlabelxx{#1}#2}
\gdef\newlabelxx#1#2#3#4#5#6{\oldnewlabel{#1}{{#2}{#3}}}
\AtEndDocument{\ifx\hyper@anchor\@undefined
\let\contentsline\oldcontentsline
\let\newlabel\oldnewlabel
\fi}
\fi}
\global\let\hyper@last\relax 
\gdef\HyperFirstAtBeginDocument#1{#1}
\providecommand\HyField@AuxAddToFields[1]{}
\providecommand\HyField@AuxAddToCoFields[2]{}
\babel@aux{english}{}
\newlabel{index::doc}{{}{1}{}{section*.2}{}}
\@writefile{toc}{\contentsline {chapter}{\numberline {1}User Guide}{3}{chapter.1}\protected@file@percent }
\@writefile{lof}{\addvspace {10\p@ }}
\@writefile{lot}{\addvspace {10\p@ }}
\newlabel{index:user-guide}{{1}{3}{User Guide}{chapter.1}{}}
\@writefile{toc}{\contentsline {section}{\numberline {1.1}Quickstart}{3}{section.1.1}\protected@file@percent }
\newlabel{guide/en/quickstart:quickstart}{{1.1}{3}{Quickstart}{section.1.1}{}}
\newlabel{guide/en/quickstart::doc}{{1.1}{3}{Quickstart}{section.1.1}{}}
\@writefile{toc}{\contentsline {subsection}{\numberline {1.1.1}Install PyScribus}{3}{subsection.1.1.1}\protected@file@percent }
\newlabel{guide/en/quickstart:install-pyscribus}{{1.1.1}{3}{Install PyScribus}{subsection.1.1.1}{}}
\@writefile{toc}{\contentsline {subsubsection}{Pip}{3}{subsubsection*.3}\protected@file@percent }
\newlabel{guide/en/quickstart:pip}{{1.1.1}{3}{Pip}{subsubsection*.3}{}}
\@writefile{toc}{\contentsline {subsubsection}{Git}{3}{subsubsection*.4}\protected@file@percent }
\newlabel{guide/en/quickstart:git}{{1.1.1}{3}{Git}{subsubsection*.4}{}}
\@writefile{toc}{\contentsline {subsection}{\numberline {1.1.2}An introduction to PyScribus modules}{3}{subsection.1.1.2}\protected@file@percent }
\newlabel{guide/en/quickstart:an-introduction-to-pyscribus-modules}{{1.1.2}{3}{An introduction to PyScribus modules}{subsection.1.1.2}{}}
\@writefile{toc}{\contentsline {subsubsection}{Used for parsing \& generating}{3}{subsubsection*.5}\protected@file@percent }
\newlabel{guide/en/quickstart:used-for-parsing-generating}{{1.1.2}{3}{Used for parsing \& generating}{subsubsection*.5}{}}
\@writefile{toc}{\contentsline {subsubsection}{Paper sizes}{3}{subsubsection*.6}\protected@file@percent }
\newlabel{guide/en/quickstart:paper-sizes}{{1.1.2}{3}{Paper sizes}{subsubsection*.6}{}}
\@writefile{toc}{\contentsline {subsubsection}{Extras}{4}{subsubsection*.7}\protected@file@percent }
\newlabel{guide/en/quickstart:extras}{{1.1.2}{4}{Extras}{subsubsection*.7}{}}
\@writefile{toc}{\contentsline {subsubsection}{Basis}{4}{subsubsection*.8}\protected@file@percent }
\newlabel{guide/en/quickstart:basis}{{1.1.2}{4}{Basis}{subsubsection*.8}{}}
\@writefile{toc}{\contentsline {subsection}{\numberline {1.1.3}Basics of PyScribus objects}{4}{subsection.1.1.3}\protected@file@percent }
\newlabel{guide/en/quickstart:basics-of-pyscribus-objects}{{1.1.3}{4}{Basics of PyScribus objects}{subsection.1.1.3}{}}
\@writefile{toc}{\contentsline {subsubsection}{Defaults}{4}{subsubsection*.9}\protected@file@percent }
\newlabel{guide/en/quickstart:defaults}{{1.1.3}{4}{Defaults}{subsubsection*.9}{}}
\@writefile{toc}{\contentsline {subsubsection}{XML}{4}{subsubsection*.10}\protected@file@percent }
\newlabel{guide/en/quickstart:xml}{{1.1.3}{4}{XML}{subsubsection*.10}{}}
\@writefile{toc}{\contentsline {subsection}{\numberline {1.1.4}Measures and geometry in PyScribus}{5}{subsection.1.1.4}\protected@file@percent }
\newlabel{guide/en/quickstart:measures-and-geometry-in-pyscribus}{{1.1.4}{5}{Measures and geometry in PyScribus}{subsection.1.1.4}{}}
\@writefile{toc}{\contentsline {subsection}{\numberline {1.1.5}Frequent tasks}{5}{subsection.1.1.5}\protected@file@percent }
\newlabel{guide/en/quickstart:frequent-tasks}{{1.1.5}{5}{Frequent tasks}{subsection.1.1.5}{}}
\@writefile{toc}{\contentsline {subsubsection}{Reading an existing SLA file}{5}{subsubsection*.11}\protected@file@percent }
\newlabel{guide/en/quickstart:reading-an-existing-sla-file}{{1.1.5}{5}{Reading an existing SLA file}{subsubsection*.11}{}}
\@writefile{toc}{\contentsline {subsubsection}{Generating an SLA file}{5}{subsubsection*.12}\protected@file@percent }
\newlabel{guide/en/quickstart:generating-an-sla-file}{{1.1.5}{5}{Generating an SLA file}{subsubsection*.12}{}}
\@writefile{toc}{\contentsline {subsubsection}{Creating a frame (page object)}{5}{subsubsection*.13}\protected@file@percent }
\newlabel{guide/en/quickstart:creating-a-frame-page-object}{{1.1.5}{5}{Creating a frame (page object)}{subsubsection*.13}{}}
\@writefile{toc}{\contentsline {subsubsection}{Adding things to a SLA file}{5}{subsubsection*.14}\protected@file@percent }
\newlabel{guide/en/quickstart:adding-things-to-a-sla-file}{{1.1.5}{5}{Adding things to a SLA file}{subsubsection*.14}{}}
\@writefile{toc}{\contentsline {section}{\numberline {1.2}PyScribus Story Markup}{5}{section.1.2}\protected@file@percent }
\newlabel{guide/en/psm:pyscribus-story-markup}{{1.2}{5}{PyScribus Story Markup}{section.1.2}{}}
\newlabel{guide/en/psm::doc}{{1.2}{5}{PyScribus Story Markup}{section.1.2}{}}
\@writefile{toc}{\contentsline {subsection}{\numberline {1.2.1}Main elements}{5}{subsection.1.2.1}\protected@file@percent }
\newlabel{guide/en/psm:main-elements}{{1.2.1}{5}{Main elements}{subsection.1.2.1}{}}
\@writefile{toc}{\contentsline {subsection}{\numberline {1.2.2}Span element}{5}{subsection.1.2.2}\protected@file@percent }
\newlabel{guide/en/psm:span-element}{{1.2.2}{5}{Span element}{subsection.1.2.2}{}}
\@writefile{toc}{\contentsline {subsubsection}{@style}{5}{subsubsection*.15}\protected@file@percent }
\newlabel{guide/en/psm:style}{{1.2.2}{5}{@style}{subsubsection*.15}{}}
\@writefile{toc}{\contentsline {subsubsection}{@class}{6}{subsubsection*.16}\protected@file@percent }
\newlabel{guide/en/psm:class}{{1.2.2}{6}{@class}{subsubsection*.16}{}}
\@writefile{toc}{\contentsline {section}{\numberline {1.3}Templating}{6}{section.1.3}\protected@file@percent }
\newlabel{guide/en/templating:templating}{{1.3}{6}{Templating}{section.1.3}{}}
\newlabel{guide/en/templating::doc}{{1.3}{6}{Templating}{section.1.3}{}}
\@writefile{toc}{\contentsline {subsection}{\numberline {1.3.1}What you can do with PyScribus templating}{6}{subsection.1.3.1}\protected@file@percent }
\newlabel{guide/en/templating:what-you-can-do-with-pyscribus-templating}{{1.3.1}{6}{What you can do with PyScribus templating}{subsection.1.3.1}{}}
\@writefile{toc}{\contentsline {subsection}{\numberline {1.3.2}Activation \& configuration}{6}{subsection.1.3.2}\protected@file@percent }
\newlabel{guide/en/templating:activation-configuration}{{1.3.2}{6}{Activation \& configuration}{subsection.1.3.2}{}}
\@writefile{toc}{\contentsline {subsection}{\numberline {1.3.3}Load data}{6}{subsection.1.3.3}\protected@file@percent }
\newlabel{guide/en/templating:load-data}{{1.3.3}{6}{Load data}{subsection.1.3.3}{}}
\@writefile{toc}{\contentsline {section}{\numberline {1.4}Logging}{7}{section.1.4}\protected@file@percent }
\newlabel{guide/en/logging:logging}{{1.4}{7}{Logging}{section.1.4}{}}
\newlabel{guide/en/logging::doc}{{1.4}{7}{Logging}{section.1.4}{}}
\@writefile{toc}{\contentsline {subsection}{\numberline {1.4.1}Activation}{7}{subsection.1.4.1}\protected@file@percent }
\newlabel{guide/en/logging:activation}{{1.4.1}{7}{Activation}{subsection.1.4.1}{}}
\@writefile{toc}{\contentsline {subsection}{\numberline {1.4.2}Configuration}{7}{subsection.1.4.2}\protected@file@percent }
\newlabel{guide/en/logging:configuration}{{1.4.2}{7}{Configuration}{subsection.1.4.2}{}}
\@writefile{toc}{\contentsline {section}{\numberline {1.5}Examples}{7}{section.1.5}\protected@file@percent }
\newlabel{examples/index:examples}{{1.5}{7}{Examples}{section.1.5}{}}
\newlabel{examples/index::doc}{{1.5}{7}{Examples}{section.1.5}{}}
\@writefile{toc}{\contentsline {subsection}{\numberline {1.5.1}Draw a wireframe of a file}{7}{subsection.1.5.1}\protected@file@percent }
\newlabel{examples/wireframe:draw-a-wireframe-of-a-file}{{1.5.1}{7}{Draw a wireframe of a file}{subsection.1.5.1}{}}
\newlabel{examples/wireframe::doc}{{1.5.1}{7}{Draw a wireframe of a file}{subsection.1.5.1}{}}
\@writefile{lof}{\contentsline {figure}{\numberline {1}{\ignorespaces Original SLA file. Cropped on the left side.}}{7}{figure.1.1}\protected@file@percent }
\newlabel{examples/wireframe:id1}{{1}{7}{Original SLA file. Cropped on the left side}{figure.1.1}{}}
\@writefile{lof}{\contentsline {figure}{\numberline {2}{\ignorespaces Wireframe}}{7}{figure.1.2}\protected@file@percent }
\newlabel{examples/wireframe:id2}{{2}{7}{Wireframe}{figure.1.2}{}}
\@writefile{toc}{\contentsline {section}{\numberline {1.6}Scribus SLA for humans}{8}{section.1.6}\protected@file@percent }
\newlabel{forhumans:scribus-sla-for-humans}{{1.6}{8}{Scribus SLA for humans}{section.1.6}{}}
\newlabel{forhumans::doc}{{1.6}{8}{Scribus SLA for humans}{section.1.6}{}}
\@writefile{toc}{\contentsline {subsection}{\numberline {1.6.1}{[}FR{]} Comment les \sphinxstyleemphasis {stories} de Scribus (semblent) fonctionner}{8}{subsection.1.6.1}\protected@file@percent }
\newlabel{articles/fr/stories:fr-comment-les-stories-de-scribus-semblent-fonctionner}{{1.6.1}{8}{{[}FR{]} Comment les \sphinxstyleemphasis {stories} de Scribus (semblent) fonctionner}{subsection.1.6.1}{}}
\newlabel{articles/fr/stories::doc}{{1.6.1}{8}{{[}FR{]} Comment les \sphinxstyleemphasis {stories} de Scribus (semblent) fonctionner}{subsection.1.6.1}{}}
\@writefile{toc}{\contentsline {subsubsection}{Comment faire un paragraphe}{8}{subsubsection*.17}\protected@file@percent }
\newlabel{articles/fr/stories:comment-faire-un-paragraphe}{{1.6.1}{8}{Comment faire un paragraphe}{subsubsection*.17}{}}
\@writefile{toc}{\contentsline {subsection}{\numberline {1.6.2}{[}FR{]} Mesures et autres nombres}{8}{subsection.1.6.2}\protected@file@percent }
\newlabel{articles/fr/dims:fr-mesures-et-autres-nombres}{{1.6.2}{8}{{[}FR{]} Mesures et autres nombres}{subsection.1.6.2}{}}
\newlabel{articles/fr/dims::doc}{{1.6.2}{8}{{[}FR{]} Mesures et autres nombres}{subsection.1.6.2}{}}
\@writefile{toc}{\contentsline {chapter}{\numberline {2}Documentation}{9}{chapter.2}\protected@file@percent }
\@writefile{lof}{\addvspace {10\p@ }}
\@writefile{lot}{\addvspace {10\p@ }}
\newlabel{index:documentation}{{2}{9}{Documentation}{chapter.2}{}}
\@writefile{toc}{\contentsline {section}{\numberline {2.1}Reference}{9}{section.2.1}\protected@file@percent }
\newlabel{modules:reference}{{2.1}{9}{Reference}{section.2.1}{}}
\newlabel{modules::doc}{{2.1}{9}{Reference}{section.2.1}{}}
\@writefile{toc}{\contentsline {subsection}{\numberline {2.1.1}pyscribus package}{9}{subsection.2.1.1}\protected@file@percent }
\newlabel{pyscribus:module-pyscribus}{{2.1.1}{9}{pyscribus package}{subsection.2.1.1}{}}
\newlabel{pyscribus:pyscribus-package}{{2.1.1}{9}{pyscribus package}{subsection.2.1.1}{}}
\newlabel{pyscribus::doc}{{2.1.1}{9}{pyscribus package}{subsection.2.1.1}{}}
\@writefile{toc}{\contentsline {subsubsection}{Basis}{9}{subsubsection*.18}\protected@file@percent }
\newlabel{pyscribus:basis}{{2.1.1}{9}{Basis}{subsubsection*.18}{}}
\@writefile{toc}{\contentsline {paragraph}{pyscribus.common.xml}{9}{paragraph*.19}\protected@file@percent }
\newlabel{pyscribus:module-pyscribus.common.xml}{{2.1.1}{9}{pyscribus.common.xml}{paragraph*.19}{}}
\newlabel{pyscribus:pyscribus-common-xml}{{2.1.1}{9}{pyscribus.common.xml}{paragraph*.19}{}}
\newlabel{pyscribus:pyscribus.common.xml.OrphanElement}{{2.1.1}{9}{pyscribus.common.xml}{section*.20}{}}
\newlabel{pyscribus:pyscribus.common.xml.OrphanElement.fromdefault}{{2.1.1}{9}{pyscribus.common.xml}{section*.21}{}}
\newlabel{pyscribus:pyscribus.common.xml.OrphanElement.fromxml}{{2.1.1}{9}{pyscribus.common.xml}{section*.22}{}}
\newlabel{pyscribus:pyscribus.common.xml.OrphanElement.toxml}{{2.1.1}{9}{pyscribus.common.xml}{section*.23}{}}
\newlabel{pyscribus:pyscribus.common.xml.PyScribusElement}{{2.1.1}{9}{pyscribus.common.xml}{section*.24}{}}
\newlabel{pyscribus:pyscribus.common.xml.PyScribusElement.copy}{{2.1.1}{9}{pyscribus.common.xml}{section*.25}{}}
\newlabel{pyscribus:pyscribus.common.xml.PyScribusElement.fromdefault}{{2.1.1}{9}{pyscribus.common.xml}{section*.26}{}}
\newlabel{pyscribus:pyscribus.common.xml.PyScribusElement.fromxml}{{2.1.1}{10}{pyscribus.common.xml}{section*.27}{}}
\newlabel{pyscribus:pyscribus.common.xml.PyScribusElement.listdefaults}{{2.1.1}{10}{pyscribus.common.xml}{section*.28}{}}
\newlabel{pyscribus:pyscribus.common.xml.PyScribusElement.toxml}{{2.1.1}{10}{pyscribus.common.xml}{section*.29}{}}
\newlabel{pyscribus:pyscribus.common.xml.all_undocumented_to_python}{{2.1.1}{10}{pyscribus.common.xml}{section*.30}{}}
\newlabel{pyscribus:pyscribus.common.xml.all_undocumented_to_xml}{{2.1.1}{10}{pyscribus.common.xml}{section*.31}{}}
\newlabel{pyscribus:pyscribus.common.xml.bool_or_else_to_num}{{2.1.1}{10}{pyscribus.common.xml}{section*.32}{}}
\newlabel{pyscribus:pyscribus.common.xml.bool_to_num}{{2.1.1}{10}{pyscribus.common.xml}{section*.33}{}}
\newlabel{pyscribus:pyscribus.common.xml.float_or_int_string}{{2.1.1}{10}{pyscribus.common.xml}{section*.34}{}}
\newlabel{pyscribus:pyscribus.common.xml.none_or_str}{{2.1.1}{10}{pyscribus.common.xml}{section*.35}{}}
\newlabel{pyscribus:pyscribus.common.xml.num_to_bool}{{2.1.1}{10}{pyscribus.common.xml}{section*.36}{}}
\newlabel{pyscribus:pyscribus.common.xml.str_or_nonestr}{{2.1.1}{11}{pyscribus.common.xml}{section*.37}{}}
\newlabel{pyscribus:pyscribus.common.xml.undocumented_to_python}{{2.1.1}{11}{pyscribus.common.xml}{section*.38}{}}
\newlabel{pyscribus:pyscribus.common.xml.undocumented_to_xml}{{2.1.1}{11}{pyscribus.common.xml}{section*.39}{}}
\@writefile{toc}{\contentsline {paragraph}{pyscribus.common.math}{11}{paragraph*.40}\protected@file@percent }
\newlabel{pyscribus:module-pyscribus.common.math}{{2.1.1}{11}{pyscribus.common.math}{paragraph*.40}{}}
\newlabel{pyscribus:pyscribus-common-math}{{2.1.1}{11}{pyscribus.common.math}{paragraph*.40}{}}
\newlabel{pyscribus:pyscribus.common.math.FloatEnum}{{2.1.1}{11}{pyscribus.common.math}{section*.41}{}}
\newlabel{pyscribus:pyscribus.common.math.mm}{{2.1.1}{11}{pyscribus.common.math}{section*.42}{}}
\newlabel{pyscribus:pyscribus.common.math.necessary_float}{{2.1.1}{11}{pyscribus.common.math}{section*.43}{}}
\newlabel{pyscribus:pyscribus.common.math.truncate}{{2.1.1}{11}{pyscribus.common.math}{section*.44}{}}
\@writefile{toc}{\contentsline {paragraph}{pyscribus.exceptions}{12}{paragraph*.45}\protected@file@percent }
\newlabel{pyscribus:module-pyscribus.exceptions}{{2.1.1}{12}{pyscribus.exceptions}{paragraph*.45}{}}
\newlabel{pyscribus:pyscribus-exceptions}{{2.1.1}{12}{pyscribus.exceptions}{paragraph*.45}{}}
\newlabel{pyscribus:pyscribus.exceptions.ColorMixing}{{2.1.1}{12}{pyscribus.exceptions}{section*.46}{}}
\newlabel{pyscribus:pyscribus.exceptions.ConflictingLayer}{{2.1.1}{12}{pyscribus.exceptions}{section*.47}{}}
\newlabel{pyscribus:pyscribus.exceptions.IncompatibleDim}{{2.1.1}{12}{pyscribus.exceptions}{section*.48}{}}
\newlabel{pyscribus:pyscribus.exceptions.InsaneSLAValue}{{2.1.1}{12}{pyscribus.exceptions}{section*.49}{}}
\newlabel{pyscribus:pyscribus.exceptions.InvalidColor}{{2.1.1}{12}{pyscribus.exceptions}{section*.50}{}}
\newlabel{pyscribus:pyscribus.exceptions.InvalidDim}{{2.1.1}{12}{pyscribus.exceptions}{section*.51}{}}
\newlabel{pyscribus:pyscribus.exceptions.MissingSLAAttribute}{{2.1.1}{12}{pyscribus.exceptions}{section*.52}{}}
\newlabel{pyscribus:pyscribus.exceptions.QuickSetupInvalidValue}{{2.1.1}{12}{pyscribus.exceptions}{section*.53}{}}
\newlabel{pyscribus:pyscribus.exceptions.UnknownDimUnit}{{2.1.1}{12}{pyscribus.exceptions}{section*.54}{}}
\newlabel{pyscribus:pyscribus.exceptions.UnknownLayer}{{2.1.1}{12}{pyscribus.exceptions}{section*.55}{}}
\newlabel{pyscribus:pyscribus.exceptions.UnknownOrEmptyItemAttributeType}{{2.1.1}{12}{pyscribus.exceptions}{section*.56}{}}
\newlabel{pyscribus:pyscribus.exceptions.UnknownRenderBufferProperty}{{2.1.1}{12}{pyscribus.exceptions}{section*.57}{}}
\newlabel{pyscribus:pyscribus.exceptions.UnknownStyleInStory}{{2.1.1}{12}{pyscribus.exceptions}{section*.58}{}}
\@writefile{toc}{\contentsline {subsubsection}{Usual}{12}{subsubsection*.59}\protected@file@percent }
\newlabel{pyscribus:usual}{{2.1.1}{12}{Usual}{subsubsection*.59}{}}
\@writefile{toc}{\contentsline {paragraph}{pyscribus.dimensions}{12}{paragraph*.60}\protected@file@percent }
\newlabel{pyscribus:module-pyscribus.dimensions}{{2.1.1}{12}{pyscribus.dimensions}{paragraph*.60}{}}
\newlabel{pyscribus:pyscribus-dimensions}{{2.1.1}{12}{pyscribus.dimensions}{paragraph*.60}{}}
\newlabel{pyscribus:pyscribus.dimensions.Dim}{{2.1.1}{12}{pyscribus.dimensions}{section*.61}{}}
\newlabel{pyscribus:pyscribus.dimensions.Dim.UNIT_ARGS}{{2.1.1}{13}{pyscribus.dimensions}{section*.62}{}}
\newlabel{pyscribus:pyscribus.dimensions.Dim.check_value}{{2.1.1}{13}{pyscribus.dimensions}{section*.63}{}}
\newlabel{pyscribus:pyscribus.dimensions.Dim.from_original_unit}{{2.1.1}{13}{pyscribus.dimensions}{section*.64}{}}
\newlabel{pyscribus:pyscribus.dimensions.Dim.fromdefault}{{2.1.1}{13}{pyscribus.dimensions}{section*.65}{}}
\newlabel{pyscribus:pyscribus.dimensions.Dim.is_convertable_length}{{2.1.1}{13}{pyscribus.dimensions}{section*.66}{}}
\newlabel{pyscribus:pyscribus.dimensions.Dim.set_unit}{{2.1.1}{13}{pyscribus.dimensions}{section*.67}{}}
\newlabel{pyscribus:pyscribus.dimensions.Dim.todpi}{{2.1.1}{13}{pyscribus.dimensions}{section*.68}{}}
\newlabel{pyscribus:pyscribus.dimensions.Dim.tolpi}{{2.1.1}{13}{pyscribus.dimensions}{section*.69}{}}
\newlabel{pyscribus:pyscribus.dimensions.Dim.tomm}{{2.1.1}{13}{pyscribus.dimensions}{section*.70}{}}
\newlabel{pyscribus:pyscribus.dimensions.Dim.topc}{{2.1.1}{14}{pyscribus.dimensions}{section*.71}{}}
\newlabel{pyscribus:pyscribus.dimensions.Dim.topica}{{2.1.1}{14}{pyscribus.dimensions}{section*.72}{}}
\newlabel{pyscribus:pyscribus.dimensions.Dim.toxml}{{2.1.1}{14}{pyscribus.dimensions}{section*.73}{}}
\newlabel{pyscribus:pyscribus.dimensions.Dim.toxmlstr}{{2.1.1}{14}{pyscribus.dimensions}{section*.74}{}}
\newlabel{pyscribus:pyscribus.dimensions.DimBox}{{2.1.1}{14}{pyscribus.dimensions}{section*.75}{}}
\newlabel{pyscribus:pyscribus.dimensions.DimBox.getx}{{2.1.1}{14}{pyscribus.dimensions}{section*.76}{}}
\newlabel{pyscribus:pyscribus.dimensions.DimBox.gety}{{2.1.1}{14}{pyscribus.dimensions}{section*.77}{}}
\newlabel{pyscribus:pyscribus.dimensions.DimBox.move}{{2.1.1}{14}{pyscribus.dimensions}{section*.78}{}}
\newlabel{pyscribus:pyscribus.dimensions.DimBox.resize_side}{{2.1.1}{14}{pyscribus.dimensions}{section*.79}{}}
\newlabel{pyscribus:pyscribus.dimensions.DimBox.rotate}{{2.1.1}{15}{pyscribus.dimensions}{section*.80}{}}
\newlabel{pyscribus:pyscribus.dimensions.DimBox.set_box}{{2.1.1}{15}{pyscribus.dimensions}{section*.81}{}}
\newlabel{pyscribus:pyscribus.dimensions.DimBox.setx}{{2.1.1}{15}{pyscribus.dimensions}{section*.82}{}}
\newlabel{pyscribus:pyscribus.dimensions.DimBox.sety}{{2.1.1}{15}{pyscribus.dimensions}{section*.83}{}}
\newlabel{pyscribus:pyscribus.dimensions.DimBox.translate}{{2.1.1}{15}{pyscribus.dimensions}{section*.84}{}}
\newlabel{pyscribus:pyscribus.dimensions.LocalDimBox}{{2.1.1}{15}{pyscribus.dimensions}{section*.85}{}}
\@writefile{toc}{\contentsline {paragraph}{pyscribus.document}{16}{paragraph*.86}\protected@file@percent }
\newlabel{pyscribus:module-pyscribus.document}{{2.1.1}{16}{pyscribus.document}{paragraph*.86}{}}
\newlabel{pyscribus:pyscribus-document}{{2.1.1}{16}{pyscribus.document}{paragraph*.86}{}}
\newlabel{pyscribus:pyscribus.document.Document}{{2.1.1}{16}{pyscribus.document}{section*.87}{}}
\newlabel{pyscribus:pyscribus.document.Document.append}{{2.1.1}{16}{pyscribus.document}{section*.88}{}}
\newlabel{pyscribus:pyscribus.document.Document.autoframes_xml}{{2.1.1}{16}{pyscribus.document}{section*.89}{}}
\newlabel{pyscribus:pyscribus.document.Document.bleed_xml}{{2.1.1}{16}{pyscribus.document}{section*.90}{}}
\newlabel{pyscribus:pyscribus.document.Document.fromdefault}{{2.1.1}{16}{pyscribus.document}{section*.91}{}}
\newlabel{pyscribus:pyscribus.document.Document.fromxml}{{2.1.1}{16}{pyscribus.document}{section*.92}{}}
\newlabel{pyscribus:pyscribus.document.Document.metadata_xml}{{2.1.1}{16}{pyscribus.document}{section*.93}{}}
\newlabel{pyscribus:pyscribus.document.Document.page_number}{{2.1.1}{16}{pyscribus.document}{section*.94}{}}
\newlabel{pyscribus:pyscribus.document.Document.pageobjects}{{2.1.1}{16}{pyscribus.document}{section*.95}{}}
\newlabel{pyscribus:pyscribus.document.Document.stories}{{2.1.1}{16}{pyscribus.document}{section*.96}{}}
\newlabel{pyscribus:pyscribus.document.Document.style}{{2.1.1}{16}{pyscribus.document}{section*.97}{}}
\newlabel{pyscribus:pyscribus.document.Document.toxml}{{2.1.1}{17}{pyscribus.document}{section*.98}{}}
\newlabel{pyscribus:pyscribus.document.Document.ui_show_xml}{{2.1.1}{17}{pyscribus.document}{section*.99}{}}
\newlabel{pyscribus:pyscribus.document.Profile}{{2.1.1}{17}{pyscribus.document}{section*.100}{}}
\newlabel{pyscribus:pyscribus.document.Profile.defaults}{{2.1.1}{17}{pyscribus.document}{section*.101}{}}
\newlabel{pyscribus:pyscribus.document.Profile.fromdefault}{{2.1.1}{17}{pyscribus.document}{section*.102}{}}
\newlabel{pyscribus:pyscribus.document.Profile.fromxml}{{2.1.1}{17}{pyscribus.document}{section*.103}{}}
\newlabel{pyscribus:pyscribus.document.Profile.set_checks}{{2.1.1}{17}{pyscribus.document}{section*.104}{}}
\newlabel{pyscribus:pyscribus.document.Profile.toxml}{{2.1.1}{17}{pyscribus.document}{section*.105}{}}
\newlabel{pyscribus:pyscribus.document.Profile.unset_checks}{{2.1.1}{17}{pyscribus.document}{section*.106}{}}
\@writefile{toc}{\contentsline {paragraph}{pyscribus.layers}{17}{paragraph*.107}\protected@file@percent }
\newlabel{pyscribus:module-pyscribus.layers}{{2.1.1}{17}{pyscribus.layers}{paragraph*.107}{}}
\newlabel{pyscribus:pyscribus-layers}{{2.1.1}{17}{pyscribus.layers}{paragraph*.107}{}}
\newlabel{pyscribus:pyscribus.layers.Layer}{{2.1.1}{17}{pyscribus.layers}{section*.108}{}}
\newlabel{pyscribus:pyscribus.layers.Layer.blendmodes_to_xml}{{2.1.1}{17}{pyscribus.layers}{section*.109}{}}
\newlabel{pyscribus:pyscribus.layers.Layer.fromdefault}{{2.1.1}{17}{pyscribus.layers}{section*.110}{}}
\newlabel{pyscribus:pyscribus.layers.Layer.fromxml}{{2.1.1}{17}{pyscribus.layers}{section*.111}{}}
\newlabel{pyscribus:pyscribus.layers.Layer.toxml}{{2.1.1}{17}{pyscribus.layers}{section*.112}{}}
\@writefile{toc}{\contentsline {paragraph}{pyscribus.colors}{18}{paragraph*.113}\protected@file@percent }
\newlabel{pyscribus:module-pyscribus.colors}{{2.1.1}{18}{pyscribus.colors}{paragraph*.113}{}}
\newlabel{pyscribus:pyscribus-colors}{{2.1.1}{18}{pyscribus.colors}{paragraph*.113}{}}
\newlabel{pyscribus:pyscribus.colors.Color}{{2.1.1}{18}{pyscribus.colors}{section*.114}{}}
\newlabel{pyscribus:pyscribus.colors.Color.cmyk}{{2.1.1}{18}{pyscribus.colors}{section*.115}{}}
\newlabel{pyscribus:pyscribus.colors.Color.defaults}{{2.1.1}{18}{pyscribus.colors}{section*.116}{}}
\newlabel{pyscribus:pyscribus.colors.Color.fromdefault}{{2.1.1}{18}{pyscribus.colors}{section*.117}{}}
\newlabel{pyscribus:pyscribus.colors.Color.fromxml}{{2.1.1}{18}{pyscribus.colors}{section*.118}{}}
\newlabel{pyscribus:pyscribus.colors.Color.rgb}{{2.1.1}{18}{pyscribus.colors}{section*.119}{}}
\newlabel{pyscribus:pyscribus.colors.Color.same_space}{{2.1.1}{18}{pyscribus.colors}{section*.120}{}}
\newlabel{pyscribus:pyscribus.colors.Color.set_colors}{{2.1.1}{18}{pyscribus.colors}{section*.121}{}}
\newlabel{pyscribus:pyscribus.colors.Color.set_space}{{2.1.1}{18}{pyscribus.colors}{section*.122}{}}
\newlabel{pyscribus:pyscribus.colors.Color.set_space_colors}{{2.1.1}{18}{pyscribus.colors}{section*.123}{}}
\newlabel{pyscribus:pyscribus.colors.Color.space}{{2.1.1}{19}{pyscribus.colors}{section*.124}{}}
\newlabel{pyscribus:pyscribus.colors.Color.toxml}{{2.1.1}{19}{pyscribus.colors}{section*.125}{}}
\newlabel{pyscribus:pyscribus.colors.Gradient}{{2.1.1}{19}{pyscribus.colors}{section*.126}{}}
\newlabel{pyscribus:pyscribus.colors.Gradient.append_stop}{{2.1.1}{19}{pyscribus.colors}{section*.127}{}}
\newlabel{pyscribus:pyscribus.colors.Gradient.fromxml}{{2.1.1}{19}{pyscribus.colors}{section*.128}{}}
\newlabel{pyscribus:pyscribus.colors.Gradient.toxml}{{2.1.1}{19}{pyscribus.colors}{section*.129}{}}
\newlabel{pyscribus:pyscribus.colors.GradientColorStop}{{2.1.1}{19}{pyscribus.colors}{section*.130}{}}
\newlabel{pyscribus:pyscribus.colors.GradientColorStop.fromdefault}{{2.1.1}{19}{pyscribus.colors}{section*.131}{}}
\newlabel{pyscribus:pyscribus.colors.GradientColorStop.fromxml}{{2.1.1}{19}{pyscribus.colors}{section*.132}{}}
\newlabel{pyscribus:pyscribus.colors.GradientColorStop.toxml}{{2.1.1}{20}{pyscribus.colors}{section*.133}{}}
\@writefile{toc}{\contentsline {paragraph}{pyscribus.patterns}{20}{paragraph*.134}\protected@file@percent }
\newlabel{pyscribus:module-pyscribus.patterns}{{2.1.1}{20}{pyscribus.patterns}{paragraph*.134}{}}
\newlabel{pyscribus:pyscribus-patterns}{{2.1.1}{20}{pyscribus.patterns}{paragraph*.134}{}}
\newlabel{pyscribus:pyscribus.patterns.Pattern}{{2.1.1}{20}{pyscribus.patterns}{section*.135}{}}
\newlabel{pyscribus:pyscribus.patterns.Pattern.fromxml}{{2.1.1}{20}{pyscribus.patterns}{section*.136}{}}
\newlabel{pyscribus:pyscribus.patterns.Pattern.toxml}{{2.1.1}{20}{pyscribus.patterns}{section*.137}{}}
\newlabel{pyscribus:pyscribus.patterns.PatternItem}{{2.1.1}{20}{pyscribus.patterns}{section*.138}{}}
\newlabel{pyscribus:pyscribus.patterns.PatternItem.fromxml}{{2.1.1}{20}{pyscribus.patterns}{section*.139}{}}
\newlabel{pyscribus:pyscribus.patterns.PatternItem.toxml}{{2.1.1}{20}{pyscribus.patterns}{section*.140}{}}
\@writefile{toc}{\contentsline {paragraph}{pyscribus.pageobjects}{20}{paragraph*.141}\protected@file@percent }
\newlabel{pyscribus:module-pyscribus.pageobjects}{{2.1.1}{20}{pyscribus.pageobjects}{paragraph*.141}{}}
\newlabel{pyscribus:pyscribus-pageobjects}{{2.1.1}{20}{pyscribus.pageobjects}{paragraph*.141}{}}
\newlabel{pyscribus:pyscribus.pageobjects.GroupObject}{{2.1.1}{20}{pyscribus.pageobjects}{section*.142}{}}
\newlabel{pyscribus:pyscribus.pageobjects.GroupObject.fromxml}{{2.1.1}{20}{pyscribus.pageobjects}{section*.143}{}}
\newlabel{pyscribus:pyscribus.pageobjects.GroupObject.toxml}{{2.1.1}{20}{pyscribus.pageobjects}{section*.144}{}}
\newlabel{pyscribus:pyscribus.pageobjects.HeadersRenderProperty}{{2.1.1}{20}{pyscribus.pageobjects}{section*.145}{}}
\newlabel{pyscribus:pyscribus.pageobjects.HeadersRenderProperty.append_package}{{2.1.1}{21}{pyscribus.pageobjects}{section*.146}{}}
\newlabel{pyscribus:pyscribus.pageobjects.HeadersRenderProperty.fromxml}{{2.1.1}{21}{pyscribus.pageobjects}{section*.147}{}}
\newlabel{pyscribus:pyscribus.pageobjects.HeadersRenderProperty.has_package}{{2.1.1}{21}{pyscribus.pageobjects}{section*.148}{}}
\newlabel{pyscribus:pyscribus.pageobjects.HeadersRenderProperty.toxml}{{2.1.1}{21}{pyscribus.pageobjects}{section*.149}{}}
\newlabel{pyscribus:pyscribus.pageobjects.ImageObject}{{2.1.1}{21}{pyscribus.pageobjects}{section*.150}{}}
\newlabel{pyscribus:pyscribus.pageobjects.ImageObject.compression_method_xml}{{2.1.1}{21}{pyscribus.pageobjects}{section*.151}{}}
\newlabel{pyscribus:pyscribus.pageobjects.ImageObject.fromxml}{{2.1.1}{21}{pyscribus.pageobjects}{section*.152}{}}
\newlabel{pyscribus:pyscribus.pageobjects.ImageObject.render_xml}{{2.1.1}{21}{pyscribus.pageobjects}{section*.153}{}}
\newlabel{pyscribus:pyscribus.pageobjects.ImageObject.toxml}{{2.1.1}{21}{pyscribus.pageobjects}{section*.154}{}}
\newlabel{pyscribus:pyscribus.pageobjects.LatexObject}{{2.1.1}{21}{pyscribus.pageobjects}{section*.155}{}}
\newlabel{pyscribus:pyscribus.pageobjects.LineObject}{{2.1.1}{22}{pyscribus.pageobjects}{section*.156}{}}
\newlabel{pyscribus:pyscribus.pageobjects.LineObject.fromxml}{{2.1.1}{22}{pyscribus.pageobjects}{section*.157}{}}
\newlabel{pyscribus:pyscribus.pageobjects.PageObject}{{2.1.1}{22}{pyscribus.pageobjects}{section*.158}{}}
\newlabel{pyscribus:pyscribus.pageobjects.PageObject.copy}{{2.1.1}{22}{pyscribus.pageobjects}{section*.159}{}}
\newlabel{pyscribus:pyscribus.pageobjects.PageObject.fromdefault}{{2.1.1}{22}{pyscribus.pageobjects}{section*.160}{}}
\newlabel{pyscribus:pyscribus.pageobjects.PageObject.fromxml}{{2.1.1}{22}{pyscribus.pageobjects}{section*.161}{}}
\newlabel{pyscribus:pyscribus.pageobjects.PageObject.has_attribute}{{2.1.1}{22}{pyscribus.pageobjects}{section*.162}{}}
\newlabel{pyscribus:pyscribus.pageobjects.PageObject.image_scaling_type_xml}{{2.1.1}{22}{pyscribus.pageobjects}{section*.163}{}}
\newlabel{pyscribus:pyscribus.pageobjects.PageObject.line_endcap_xml}{{2.1.1}{22}{pyscribus.pageobjects}{section*.164}{}}
\newlabel{pyscribus:pyscribus.pageobjects.PageObject.line_join_xml}{{2.1.1}{22}{pyscribus.pageobjects}{section*.165}{}}
\newlabel{pyscribus:pyscribus.pageobjects.PageObject.line_type_xml}{{2.1.1}{22}{pyscribus.pageobjects}{section*.166}{}}
\newlabel{pyscribus:pyscribus.pageobjects.PageObject.shape_type_xml}{{2.1.1}{22}{pyscribus.pageobjects}{section*.167}{}}
\newlabel{pyscribus:pyscribus.pageobjects.PageObject.templatable}{{2.1.1}{22}{pyscribus.pageobjects}{section*.168}{}}
\newlabel{pyscribus:pyscribus.pageobjects.PageObject.text_flow_xml}{{2.1.1}{22}{pyscribus.pageobjects}{section*.169}{}}
\newlabel{pyscribus:pyscribus.pageobjects.PageObject.toxml}{{2.1.1}{22}{pyscribus.pageobjects}{section*.170}{}}
\newlabel{pyscribus:pyscribus.pageobjects.PathPoint}{{2.1.1}{22}{pyscribus.pageobjects}{section*.171}{}}
\newlabel{pyscribus:pyscribus.pageobjects.PathPoint.is_origin}{{2.1.1}{22}{pyscribus.pageobjects}{section*.172}{}}
\newlabel{pyscribus:pyscribus.pageobjects.PathPoint.toxmlstr}{{2.1.1}{23}{pyscribus.pageobjects}{section*.173}{}}
\newlabel{pyscribus:pyscribus.pageobjects.PolygonObject}{{2.1.1}{23}{pyscribus.pageobjects}{section*.174}{}}
\newlabel{pyscribus:pyscribus.pageobjects.PolylineObject}{{2.1.1}{23}{pyscribus.pageobjects}{section*.175}{}}
\newlabel{pyscribus:pyscribus.pageobjects.RectPath}{{2.1.1}{23}{pyscribus.pageobjects}{section*.176}{}}
\newlabel{pyscribus:pyscribus.pageobjects.RectPath.add_point}{{2.1.1}{23}{pyscribus.pageobjects}{section*.177}{}}
\newlabel{pyscribus:pyscribus.pageobjects.RectPath.frombox}{{2.1.1}{23}{pyscribus.pageobjects}{section*.178}{}}
\newlabel{pyscribus:pyscribus.pageobjects.RectPath.fromxml}{{2.1.1}{23}{pyscribus.pageobjects}{section*.179}{}}
\newlabel{pyscribus:pyscribus.pageobjects.RectPath.toxml}{{2.1.1}{23}{pyscribus.pageobjects}{section*.180}{}}
\newlabel{pyscribus:pyscribus.pageobjects.RectPath.toxmlstr}{{2.1.1}{23}{pyscribus.pageobjects}{section*.181}{}}
\newlabel{pyscribus:pyscribus.pageobjects.RenderBuffer}{{2.1.1}{23}{pyscribus.pageobjects}{section*.182}{}}
\newlabel{pyscribus:pyscribus.pageobjects.RenderBuffer.append_package}{{2.1.1}{23}{pyscribus.pageobjects}{section*.183}{}}
\newlabel{pyscribus:pyscribus.pageobjects.RenderBuffer.fromdefault}{{2.1.1}{23}{pyscribus.pageobjects}{section*.184}{}}
\newlabel{pyscribus:pyscribus.pageobjects.RenderBuffer.fromxml}{{2.1.1}{23}{pyscribus.pageobjects}{section*.185}{}}
\newlabel{pyscribus:pyscribus.pageobjects.RenderBuffer.has_package}{{2.1.1}{24}{pyscribus.pageobjects}{section*.186}{}}
\newlabel{pyscribus:pyscribus.pageobjects.RenderBuffer.set_fontsize}{{2.1.1}{24}{pyscribus.pageobjects}{section*.187}{}}
\newlabel{pyscribus:pyscribus.pageobjects.RenderBuffer.toxml}{{2.1.1}{24}{pyscribus.pageobjects}{section*.188}{}}
\newlabel{pyscribus:pyscribus.pageobjects.RenderObject}{{2.1.1}{24}{pyscribus.pageobjects}{section*.189}{}}
\newlabel{pyscribus:pyscribus.pageobjects.RenderObject.append_package}{{2.1.1}{24}{pyscribus.pageobjects}{section*.190}{}}
\newlabel{pyscribus:pyscribus.pageobjects.RenderObject.fromxml}{{2.1.1}{24}{pyscribus.pageobjects}{section*.191}{}}
\newlabel{pyscribus:pyscribus.pageobjects.RenderObject.has_package}{{2.1.1}{24}{pyscribus.pageobjects}{section*.192}{}}
\newlabel{pyscribus:pyscribus.pageobjects.RenderObject.set_fontsize}{{2.1.1}{24}{pyscribus.pageobjects}{section*.193}{}}
\newlabel{pyscribus:pyscribus.pageobjects.RenderObject.toxml}{{2.1.1}{24}{pyscribus.pageobjects}{section*.194}{}}
\newlabel{pyscribus:pyscribus.pageobjects.RenderProperty}{{2.1.1}{24}{pyscribus.pageobjects}{section*.195}{}}
\newlabel{pyscribus:pyscribus.pageobjects.RenderProperty.fromxml}{{2.1.1}{25}{pyscribus.pageobjects}{section*.196}{}}
\newlabel{pyscribus:pyscribus.pageobjects.RenderProperty.toxml}{{2.1.1}{25}{pyscribus.pageobjects}{section*.197}{}}
\newlabel{pyscribus:pyscribus.pageobjects.SymbolObject}{{2.1.1}{25}{pyscribus.pageobjects}{section*.198}{}}
\newlabel{pyscribus:pyscribus.pageobjects.TableCell}{{2.1.1}{25}{pyscribus.pageobjects}{section*.199}{}}
\newlabel{pyscribus:pyscribus.pageobjects.TableCell.fromdefault}{{2.1.1}{26}{pyscribus.pageobjects}{section*.200}{}}
\newlabel{pyscribus:pyscribus.pageobjects.TableCell.fromxml}{{2.1.1}{26}{pyscribus.pageobjects}{section*.201}{}}
\newlabel{pyscribus:pyscribus.pageobjects.TableCell.toxml}{{2.1.1}{26}{pyscribus.pageobjects}{section*.202}{}}
\newlabel{pyscribus:pyscribus.pageobjects.TableCell.vertical_align}{{2.1.1}{26}{pyscribus.pageobjects}{section*.203}{}}
\newlabel{pyscribus:pyscribus.pageobjects.TableObject}{{2.1.1}{27}{pyscribus.pageobjects}{section*.204}{}}
\newlabel{pyscribus:pyscribus.pageobjects.TableObject.append_column}{{2.1.1}{27}{pyscribus.pageobjects}{section*.205}{}}
\newlabel{pyscribus:pyscribus.pageobjects.TableObject.append_columns}{{2.1.1}{27}{pyscribus.pageobjects}{section*.206}{}}
\newlabel{pyscribus:pyscribus.pageobjects.TableObject.append_row}{{2.1.1}{27}{pyscribus.pageobjects}{section*.207}{}}
\newlabel{pyscribus:pyscribus.pageobjects.TableObject.append_rows}{{2.1.1}{27}{pyscribus.pageobjects}{section*.208}{}}
\newlabel{pyscribus:pyscribus.pageobjects.TableObject.fromxml}{{2.1.1}{27}{pyscribus.pageobjects}{section*.209}{}}
\newlabel{pyscribus:pyscribus.pageobjects.TableObject.toxml}{{2.1.1}{27}{pyscribus.pageobjects}{section*.210}{}}
\newlabel{pyscribus:pyscribus.pageobjects.TextObject}{{2.1.1}{27}{pyscribus.pageobjects}{section*.211}{}}
\newlabel{pyscribus:pyscribus.pageobjects.TextObject.fromdefault}{{2.1.1}{28}{pyscribus.pageobjects}{section*.212}{}}
\newlabel{pyscribus:pyscribus.pageobjects.TextObject.fromxml}{{2.1.1}{28}{pyscribus.pageobjects}{section*.213}{}}
\newlabel{pyscribus:pyscribus.pageobjects.TextObject.templatable}{{2.1.1}{28}{pyscribus.pageobjects}{section*.214}{}}
\newlabel{pyscribus:pyscribus.pageobjects.TextObject.toxml}{{2.1.1}{28}{pyscribus.pageobjects}{section*.215}{}}
\newlabel{pyscribus:pyscribus.pageobjects.TextObject.vertical_alignment_xml}{{2.1.1}{28}{pyscribus.pageobjects}{section*.216}{}}
\newlabel{pyscribus:pyscribus.pageobjects.TextOnPathObject}{{2.1.1}{28}{pyscribus.pageobjects}{section*.217}{}}
\newlabel{pyscribus:pyscribus.pageobjects.WeldEntry}{{2.1.1}{28}{pyscribus.pageobjects}{section*.218}{}}
\newlabel{pyscribus:pyscribus.pageobjects.WeldEntry.fromdefault}{{2.1.1}{28}{pyscribus.pageobjects}{section*.219}{}}
\newlabel{pyscribus:pyscribus.pageobjects.WeldEntry.fromxml}{{2.1.1}{28}{pyscribus.pageobjects}{section*.220}{}}
\newlabel{pyscribus:pyscribus.pageobjects.WeldEntry.toxml}{{2.1.1}{28}{pyscribus.pageobjects}{section*.221}{}}
\newlabel{pyscribus:pyscribus.pageobjects.adjust_path_d}{{2.1.1}{28}{pyscribus.pageobjects}{section*.222}{}}
\newlabel{pyscribus:pyscribus.pageobjects.new_from_type}{{2.1.1}{28}{pyscribus.pageobjects}{section*.223}{}}
\@writefile{toc}{\contentsline {paragraph}{pyscribus.pages}{29}{paragraph*.224}\protected@file@percent }
\newlabel{pyscribus:module-pyscribus.pages}{{2.1.1}{29}{pyscribus.pages}{paragraph*.224}{}}
\newlabel{pyscribus:pyscribus-pages}{{2.1.1}{29}{pyscribus.pages}{paragraph*.224}{}}
\newlabel{pyscribus:pyscribus.pages.MasterPage}{{2.1.1}{29}{pyscribus.pages}{section*.225}{}}
\newlabel{pyscribus:pyscribus.pages.MasterPage.fromdefault}{{2.1.1}{29}{pyscribus.pages}{section*.226}{}}
\newlabel{pyscribus:pyscribus.pages.MasterPage.fromxml}{{2.1.1}{29}{pyscribus.pages}{section*.227}{}}
\newlabel{pyscribus:pyscribus.pages.MasterPage.set_orientation}{{2.1.1}{29}{pyscribus.pages}{section*.228}{}}
\newlabel{pyscribus:pyscribus.pages.MasterPage.toxml}{{2.1.1}{29}{pyscribus.pages}{section*.229}{}}
\newlabel{pyscribus:pyscribus.pages.Orientation}{{2.1.1}{29}{pyscribus.pages}{section*.230}{}}
\newlabel{pyscribus:pyscribus.pages.Orientation.LANDSCAPE}{{2.1.1}{29}{pyscribus.pages}{section*.231}{}}
\newlabel{pyscribus:pyscribus.pages.Orientation.PORTRAIT}{{2.1.1}{29}{pyscribus.pages}{section*.232}{}}
\newlabel{pyscribus:pyscribus.pages.Page}{{2.1.1}{29}{pyscribus.pages}{section*.233}{}}
\newlabel{pyscribus:pyscribus.pages.Page.fromdefault}{{2.1.1}{30}{pyscribus.pages}{section*.234}{}}
\newlabel{pyscribus:pyscribus.pages.Page.fromxml}{{2.1.1}{30}{pyscribus.pages}{section*.235}{}}
\newlabel{pyscribus:pyscribus.pages.Page.set_orientation}{{2.1.1}{30}{pyscribus.pages}{section*.236}{}}
\newlabel{pyscribus:pyscribus.pages.Page.toxml}{{2.1.1}{30}{pyscribus.pages}{section*.237}{}}
\newlabel{pyscribus:pyscribus.pages.PageAbstract}{{2.1.1}{30}{pyscribus.pages}{section*.238}{}}
\newlabel{pyscribus:pyscribus.pages.PageAbstract.autoguides_origin_xml}{{2.1.1}{30}{pyscribus.pages}{section*.239}{}}
\newlabel{pyscribus:pyscribus.pages.PageAbstract.effect_direction_xml}{{2.1.1}{30}{pyscribus.pages}{section*.240}{}}
\newlabel{pyscribus:pyscribus.pages.PageAbstract.effect_mobile_line_xml}{{2.1.1}{30}{pyscribus.pages}{section*.241}{}}
\newlabel{pyscribus:pyscribus.pages.PageAbstract.effect_source_xml}{{2.1.1}{30}{pyscribus.pages}{section*.242}{}}
\newlabel{pyscribus:pyscribus.pages.PageAbstract.effect_type_xml}{{2.1.1}{30}{pyscribus.pages}{section*.243}{}}
\newlabel{pyscribus:pyscribus.pages.PageAbstract.fromdefault}{{2.1.1}{30}{pyscribus.pages}{section*.244}{}}
\newlabel{pyscribus:pyscribus.pages.PageAbstract.fromxml}{{2.1.1}{30}{pyscribus.pages}{section*.245}{}}
\newlabel{pyscribus:pyscribus.pages.PageAbstract.orientation_xml}{{2.1.1}{31}{pyscribus.pages}{section*.246}{}}
\newlabel{pyscribus:pyscribus.pages.PageAbstract.set_orientation}{{2.1.1}{31}{pyscribus.pages}{section*.247}{}}
\newlabel{pyscribus:pyscribus.pages.PageAbstract.toxml}{{2.1.1}{31}{pyscribus.pages}{section*.248}{}}
\newlabel{pyscribus:pyscribus.pages.PageSet}{{2.1.1}{31}{pyscribus.pages}{section*.249}{}}
\newlabel{pyscribus:pyscribus.pages.PageSet.DEFAULTS}{{2.1.1}{31}{pyscribus.pages}{section*.250}{}}
\newlabel{pyscribus:pyscribus.pages.PageSet.fromdefault}{{2.1.1}{31}{pyscribus.pages}{section*.251}{}}
\newlabel{pyscribus:pyscribus.pages.PageSet.fromxml}{{2.1.1}{31}{pyscribus.pages}{section*.252}{}}
\newlabel{pyscribus:pyscribus.pages.PageSet.toxml}{{2.1.1}{31}{pyscribus.pages}{section*.253}{}}
\@writefile{toc}{\contentsline {paragraph}{pyscribus.sla}{31}{paragraph*.254}\protected@file@percent }
\newlabel{pyscribus:module-pyscribus.sla}{{2.1.1}{31}{pyscribus.sla}{paragraph*.254}{}}
\newlabel{pyscribus:pyscribus-sla}{{2.1.1}{31}{pyscribus.sla}{paragraph*.254}{}}
\newlabel{pyscribus:pyscribus.sla.SLA}{{2.1.1}{31}{pyscribus.sla}{section*.255}{}}
\newlabel{pyscribus:pyscribus.sla.SLA.append}{{2.1.1}{31}{pyscribus.sla}{section*.256}{}}
\newlabel{pyscribus:pyscribus.sla.SLA.fromdefault}{{2.1.1}{32}{pyscribus.sla}{section*.257}{}}
\newlabel{pyscribus:pyscribus.sla.SLA.fromxml}{{2.1.1}{32}{pyscribus.sla}{section*.258}{}}
\newlabel{pyscribus:pyscribus.sla.SLA.pageobjects}{{2.1.1}{32}{pyscribus.sla}{section*.259}{}}
\newlabel{pyscribus:pyscribus.sla.SLA.parse}{{2.1.1}{32}{pyscribus.sla}{section*.260}{}}
\newlabel{pyscribus:pyscribus.sla.SLA.save}{{2.1.1}{32}{pyscribus.sla}{section*.261}{}}
\newlabel{pyscribus:pyscribus.sla.SLA.stories}{{2.1.1}{32}{pyscribus.sla}{section*.262}{}}
\newlabel{pyscribus:pyscribus.sla.SLA.templatable_stories}{{2.1.1}{32}{pyscribus.sla}{section*.263}{}}
\newlabel{pyscribus:pyscribus.sla.SLA.toxml}{{2.1.1}{32}{pyscribus.sla}{section*.264}{}}
\@writefile{toc}{\contentsline {paragraph}{pyscribus.stories}{33}{paragraph*.265}\protected@file@percent }
\newlabel{pyscribus:module-pyscribus.stories}{{2.1.1}{33}{pyscribus.stories}{paragraph*.265}{}}
\newlabel{pyscribus:pyscribus-stories}{{2.1.1}{33}{pyscribus.stories}{paragraph*.265}{}}
\newlabel{pyscribus:pyscribus.stories.EmSpace}{{2.1.1}{33}{pyscribus.stories}{section*.266}{}}
\newlabel{pyscribus:pyscribus.stories.EnSpace}{{2.1.1}{33}{pyscribus.stories}{section*.267}{}}
\newlabel{pyscribus:pyscribus.stories.FourPerEmSpace}{{2.1.1}{33}{pyscribus.stories}{section*.268}{}}
\newlabel{pyscribus:pyscribus.stories.HairSpace}{{2.1.1}{33}{pyscribus.stories}{section*.269}{}}
\newlabel{pyscribus:pyscribus.stories.MidSpace}{{2.1.1}{33}{pyscribus.stories}{section*.270}{}}
\newlabel{pyscribus:pyscribus.stories.NarrowNonBreakingSpace}{{2.1.1}{33}{pyscribus.stories}{section*.271}{}}
\newlabel{pyscribus:pyscribus.stories.NonBreakingHyphen}{{2.1.1}{33}{pyscribus.stories}{section*.272}{}}
\newlabel{pyscribus:pyscribus.stories.NonBreakingSpace}{{2.1.1}{33}{pyscribus.stories}{section*.273}{}}
\newlabel{pyscribus:pyscribus.stories.PageCountVariable}{{2.1.1}{33}{pyscribus.stories}{section*.274}{}}
\newlabel{pyscribus:pyscribus.stories.PageNumberVariable}{{2.1.1}{33}{pyscribus.stories}{section*.275}{}}
\newlabel{pyscribus:pyscribus.stories.Story}{{2.1.1}{33}{pyscribus.stories}{section*.276}{}}
\newlabel{pyscribus:pyscribus.stories.Story.append}{{2.1.1}{33}{pyscribus.stories}{section*.277}{}}
\newlabel{pyscribus:pyscribus.stories.Story.append_paragraph}{{2.1.1}{33}{pyscribus.stories}{section*.278}{}}
\newlabel{pyscribus:pyscribus.stories.Story.append_paragraphs}{{2.1.1}{34}{pyscribus.stories}{section*.279}{}}
\newlabel{pyscribus:pyscribus.stories.Story.bypars}{{2.1.1}{34}{pyscribus.stories}{section*.280}{}}
\newlabel{pyscribus:pyscribus.stories.Story.end_contents}{{2.1.1}{34}{pyscribus.stories}{section*.281}{}}
\newlabel{pyscribus:pyscribus.stories.Story.feed_templatable}{{2.1.1}{34}{pyscribus.stories}{section*.282}{}}
\newlabel{pyscribus:pyscribus.stories.Story.fromdefault}{{2.1.1}{34}{pyscribus.stories}{section*.283}{}}
\newlabel{pyscribus:pyscribus.stories.Story.fromxml}{{2.1.1}{34}{pyscribus.stories}{section*.284}{}}
\newlabel{pyscribus:pyscribus.stories.Story.init_contents}{{2.1.1}{35}{pyscribus.stories}{section*.285}{}}
\newlabel{pyscribus:pyscribus.stories.Story.rawtext}{{2.1.1}{35}{pyscribus.stories}{section*.286}{}}
\newlabel{pyscribus:pyscribus.stories.Story.templatable}{{2.1.1}{35}{pyscribus.stories}{section*.287}{}}
\newlabel{pyscribus:pyscribus.stories.Story.toxml}{{2.1.1}{35}{pyscribus.stories}{section*.288}{}}
\newlabel{pyscribus:pyscribus.stories.StoryColumnBreak}{{2.1.1}{35}{pyscribus.stories}{section*.289}{}}
\newlabel{pyscribus:pyscribus.stories.StoryDefaultStyle}{{2.1.1}{35}{pyscribus.stories}{section*.290}{}}
\newlabel{pyscribus:pyscribus.stories.StoryEnding}{{2.1.1}{35}{pyscribus.stories}{section*.291}{}}
\newlabel{pyscribus:pyscribus.stories.StoryEnding.fromxml}{{2.1.1}{35}{pyscribus.stories}{section*.292}{}}
\newlabel{pyscribus:pyscribus.stories.StoryEnding.toxml}{{2.1.1}{35}{pyscribus.stories}{section*.293}{}}
\newlabel{pyscribus:pyscribus.stories.StoryFragment}{{2.1.1}{35}{pyscribus.stories}{section*.294}{}}
\newlabel{pyscribus:pyscribus.stories.StoryFragment.font_xml}{{2.1.1}{35}{pyscribus.stories}{section*.295}{}}
\newlabel{pyscribus:pyscribus.stories.StoryFragment.fromdefault}{{2.1.1}{35}{pyscribus.stories}{section*.296}{}}
\newlabel{pyscribus:pyscribus.stories.StoryFragment.fromxml}{{2.1.1}{36}{pyscribus.stories}{section*.297}{}}
\newlabel{pyscribus:pyscribus.stories.StoryFragment.set_features}{{2.1.1}{36}{pyscribus.stories}{section*.298}{}}
\newlabel{pyscribus:pyscribus.stories.StoryFragment.toxml}{{2.1.1}{36}{pyscribus.stories}{section*.299}{}}
\newlabel{pyscribus:pyscribus.stories.StoryFrameBreak}{{2.1.1}{36}{pyscribus.stories}{section*.300}{}}
\newlabel{pyscribus:pyscribus.stories.StoryLineBreak}{{2.1.1}{36}{pyscribus.stories}{section*.301}{}}
\newlabel{pyscribus:pyscribus.stories.StoryParagraphEnding}{{2.1.1}{36}{pyscribus.stories}{section*.302}{}}
\newlabel{pyscribus:pyscribus.stories.StoryParagraphEnding.fromxml}{{2.1.1}{36}{pyscribus.stories}{section*.303}{}}
\newlabel{pyscribus:pyscribus.stories.StoryParagraphEnding.toxml}{{2.1.1}{36}{pyscribus.stories}{section*.304}{}}
\newlabel{pyscribus:pyscribus.stories.StoryVariable}{{2.1.1}{36}{pyscribus.stories}{section*.305}{}}
\newlabel{pyscribus:pyscribus.stories.StoryVariable.fromxml}{{2.1.1}{36}{pyscribus.stories}{section*.306}{}}
\newlabel{pyscribus:pyscribus.stories.StoryVariable.toxml}{{2.1.1}{36}{pyscribus.stories}{section*.307}{}}
\newlabel{pyscribus:pyscribus.stories.StoryVariable.var_names}{{2.1.1}{36}{pyscribus.stories}{section*.308}{}}
\newlabel{pyscribus:pyscribus.stories.TemporaryFragment}{{2.1.1}{36}{pyscribus.stories}{section*.309}{}}
\newlabel{pyscribus:pyscribus.stories.ThickSpace}{{2.1.1}{37}{pyscribus.stories}{section*.310}{}}
\newlabel{pyscribus:pyscribus.stories.ThinSpace}{{2.1.1}{37}{pyscribus.stories}{section*.311}{}}
\newlabel{pyscribus:pyscribus.stories.ThreePerEmSpace}{{2.1.1}{37}{pyscribus.stories}{section*.312}{}}
\newlabel{pyscribus:pyscribus.stories.UnicodeJoiner}{{2.1.1}{37}{pyscribus.stories}{section*.313}{}}
\newlabel{pyscribus:pyscribus.stories.UnicodeNonJoiner}{{2.1.1}{37}{pyscribus.stories}{section*.314}{}}
\newlabel{pyscribus:pyscribus.stories.VeryThinSpace}{{2.1.1}{37}{pyscribus.stories}{section*.315}{}}
\newlabel{pyscribus:pyscribus.stories.sequencefromhtml}{{2.1.1}{37}{pyscribus.stories}{section*.316}{}}
\@writefile{toc}{\contentsline {paragraph}{pyscribus.notes}{37}{paragraph*.317}\protected@file@percent }
\newlabel{pyscribus:module-pyscribus.notes}{{2.1.1}{37}{pyscribus.notes}{paragraph*.317}{}}
\newlabel{pyscribus:pyscribus-notes}{{2.1.1}{37}{pyscribus.notes}{paragraph*.317}{}}
\newlabel{pyscribus:pyscribus.notes.Note}{{2.1.1}{37}{pyscribus.notes}{section*.318}{}}
\newlabel{pyscribus:pyscribus.notes.Note.fromdefault}{{2.1.1}{37}{pyscribus.notes}{section*.319}{}}
\newlabel{pyscribus:pyscribus.notes.Note.fromxml}{{2.1.1}{37}{pyscribus.notes}{section*.320}{}}
\newlabel{pyscribus:pyscribus.notes.Note.get_parent_mark}{{2.1.1}{37}{pyscribus.notes}{section*.321}{}}
\newlabel{pyscribus:pyscribus.notes.Note.toxml}{{2.1.1}{37}{pyscribus.notes}{section*.322}{}}
\newlabel{pyscribus:pyscribus.notes.NoteFrame}{{2.1.1}{38}{pyscribus.notes}{section*.323}{}}
\newlabel{pyscribus:pyscribus.notes.NoteFrame.fromdefault}{{2.1.1}{38}{pyscribus.notes}{section*.324}{}}
\newlabel{pyscribus:pyscribus.notes.NoteFrame.fromxml}{{2.1.1}{38}{pyscribus.notes}{section*.325}{}}
\newlabel{pyscribus:pyscribus.notes.NoteFrame.toxml}{{2.1.1}{38}{pyscribus.notes}{section*.326}{}}
\newlabel{pyscribus:pyscribus.notes.NoteText}{{2.1.1}{38}{pyscribus.notes}{section*.327}{}}
\newlabel{pyscribus:pyscribus.notes.NoteText.empty_pattern}{{2.1.1}{38}{pyscribus.notes}{section*.328}{}}
\newlabel{pyscribus:pyscribus.notes.NoteText.empty_text}{{2.1.1}{38}{pyscribus.notes}{section*.329}{}}
\newlabel{pyscribus:pyscribus.notes.NoteText.fromxml}{{2.1.1}{38}{pyscribus.notes}{section*.330}{}}
\newlabel{pyscribus:pyscribus.notes.NoteText.toxml}{{2.1.1}{38}{pyscribus.notes}{section*.331}{}}
\newlabel{pyscribus:pyscribus.notes.NoteText.toxmlstr}{{2.1.1}{38}{pyscribus.notes}{section*.332}{}}
\@writefile{toc}{\contentsline {paragraph}{pyscribus.marks}{38}{paragraph*.333}\protected@file@percent }
\newlabel{pyscribus:module-pyscribus.marks}{{2.1.1}{38}{pyscribus.marks}{paragraph*.333}{}}
\newlabel{pyscribus:pyscribus-marks}{{2.1.1}{38}{pyscribus.marks}{paragraph*.333}{}}
\newlabel{pyscribus:pyscribus.marks.DocumentMark}{{2.1.1}{38}{pyscribus.marks}{section*.334}{}}
\newlabel{pyscribus:pyscribus.marks.DocumentMark.fromdefault}{{2.1.1}{38}{pyscribus.marks}{section*.335}{}}
\newlabel{pyscribus:pyscribus.marks.DocumentMark.fromxml}{{2.1.1}{38}{pyscribus.marks}{section*.336}{}}
\newlabel{pyscribus:pyscribus.marks.DocumentMark.set_type}{{2.1.1}{38}{pyscribus.marks}{section*.337}{}}
\newlabel{pyscribus:pyscribus.marks.DocumentMark.toxml}{{2.1.1}{39}{pyscribus.marks}{section*.338}{}}
\newlabel{pyscribus:pyscribus.marks.DocumentMark.type_xml}{{2.1.1}{39}{pyscribus.marks}{section*.339}{}}
\newlabel{pyscribus:pyscribus.marks.StoryAnchorMark}{{2.1.1}{39}{pyscribus.marks}{section*.340}{}}
\newlabel{pyscribus:pyscribus.marks.StoryMarkAbstract}{{2.1.1}{39}{pyscribus.marks}{section*.341}{}}
\newlabel{pyscribus:pyscribus.marks.StoryMarkAbstract.fromxml}{{2.1.1}{39}{pyscribus.marks}{section*.342}{}}
\newlabel{pyscribus:pyscribus.marks.StoryMarkAbstract.set_features}{{2.1.1}{39}{pyscribus.marks}{section*.343}{}}
\newlabel{pyscribus:pyscribus.marks.StoryMarkAbstract.toxml}{{2.1.1}{39}{pyscribus.marks}{section*.344}{}}
\newlabel{pyscribus:pyscribus.marks.StoryMarkRefMark}{{2.1.1}{39}{pyscribus.marks}{section*.345}{}}
\newlabel{pyscribus:pyscribus.marks.StoryNoteMark}{{2.1.1}{39}{pyscribus.marks}{section*.346}{}}
\newlabel{pyscribus:pyscribus.marks.StoryNoteMark.fromdefault}{{2.1.1}{39}{pyscribus.marks}{section*.347}{}}
\newlabel{pyscribus:pyscribus.marks.StoryPageObjectRefMark}{{2.1.1}{39}{pyscribus.marks}{section*.348}{}}
\newlabel{pyscribus:pyscribus.marks.StoryVariableMark}{{2.1.1}{39}{pyscribus.marks}{section*.349}{}}
\newlabel{pyscribus:pyscribus.marks.story_mark_from_xml}{{2.1.1}{39}{pyscribus.marks}{section*.350}{}}
\@writefile{toc}{\contentsline {paragraph}{pyscribus.styles}{40}{paragraph*.351}\protected@file@percent }
\newlabel{pyscribus:module-pyscribus.styles}{{2.1.1}{40}{pyscribus.styles}{paragraph*.351}{}}
\newlabel{pyscribus:pyscribus-styles}{{2.1.1}{40}{pyscribus.styles}{paragraph*.351}{}}
\newlabel{pyscribus:pyscribus.styles.CellStyle}{{2.1.1}{40}{pyscribus.styles}{section*.352}{}}
\newlabel{pyscribus:pyscribus.styles.CharacterStyle}{{2.1.1}{40}{pyscribus.styles}{section*.353}{}}
\newlabel{pyscribus:pyscribus.styles.CharacterStyle.fromxml}{{2.1.1}{40}{pyscribus.styles}{section*.354}{}}
\newlabel{pyscribus:pyscribus.styles.CharacterStyle.scale_xml}{{2.1.1}{40}{pyscribus.styles}{section*.355}{}}
\newlabel{pyscribus:pyscribus.styles.CharacterStyle.toxml}{{2.1.1}{40}{pyscribus.styles}{section*.356}{}}
\newlabel{pyscribus:pyscribus.styles.NoteStyle}{{2.1.1}{40}{pyscribus.styles}{section*.357}{}}
\newlabel{pyscribus:pyscribus.styles.NoteStyle.fromdefault}{{2.1.1}{40}{pyscribus.styles}{section*.358}{}}
\newlabel{pyscribus:pyscribus.styles.NoteStyle.fromxml}{{2.1.1}{40}{pyscribus.styles}{section*.359}{}}
\newlabel{pyscribus:pyscribus.styles.NoteStyle.range_type_xml}{{2.1.1}{40}{pyscribus.styles}{section*.360}{}}
\newlabel{pyscribus:pyscribus.styles.NoteStyle.set_numtype}{{2.1.1}{40}{pyscribus.styles}{section*.361}{}}
\newlabel{pyscribus:pyscribus.styles.NoteStyle.set_type}{{2.1.1}{40}{pyscribus.styles}{section*.362}{}}
\newlabel{pyscribus:pyscribus.styles.NoteStyle.toxml}{{2.1.1}{40}{pyscribus.styles}{section*.363}{}}
\newlabel{pyscribus:pyscribus.styles.ParagraphStyle}{{2.1.1}{40}{pyscribus.styles}{section*.364}{}}
\newlabel{pyscribus:pyscribus.styles.ParagraphStyle.fromdefault}{{2.1.1}{41}{pyscribus.styles}{section*.365}{}}
\newlabel{pyscribus:pyscribus.styles.ParagraphStyle.fromxml}{{2.1.1}{41}{pyscribus.styles}{section*.366}{}}
\newlabel{pyscribus:pyscribus.styles.ParagraphStyle.glyph_scale_xml}{{2.1.1}{41}{pyscribus.styles}{section*.367}{}}
\newlabel{pyscribus:pyscribus.styles.ParagraphStyle.leading_xml}{{2.1.1}{41}{pyscribus.styles}{section*.368}{}}
\newlabel{pyscribus:pyscribus.styles.ParagraphStyle.ol_types}{{2.1.1}{41}{pyscribus.styles}{section*.369}{}}
\newlabel{pyscribus:pyscribus.styles.ParagraphStyle.optical_margins_xml}{{2.1.1}{41}{pyscribus.styles}{section*.370}{}}
\newlabel{pyscribus:pyscribus.styles.ParagraphStyle.set_leadingmode}{{2.1.1}{41}{pyscribus.styles}{section*.371}{}}
\newlabel{pyscribus:pyscribus.styles.ParagraphStyle.toxml}{{2.1.1}{41}{pyscribus.styles}{section*.372}{}}
\newlabel{pyscribus:pyscribus.styles.RuleStyle}{{2.1.1}{41}{pyscribus.styles}{section*.373}{}}
\newlabel{pyscribus:pyscribus.styles.RuleStyle.fromxml}{{2.1.1}{41}{pyscribus.styles}{section*.374}{}}
\newlabel{pyscribus:pyscribus.styles.RuleStyle.toxml}{{2.1.1}{41}{pyscribus.styles}{section*.375}{}}
\newlabel{pyscribus:pyscribus.styles.RuleStyleLine}{{2.1.1}{41}{pyscribus.styles}{section*.376}{}}
\newlabel{pyscribus:pyscribus.styles.RuleStyleLine.dash_xml}{{2.1.1}{42}{pyscribus.styles}{section*.377}{}}
\newlabel{pyscribus:pyscribus.styles.RuleStyleLine.fromdefault}{{2.1.1}{42}{pyscribus.styles}{section*.378}{}}
\newlabel{pyscribus:pyscribus.styles.RuleStyleLine.fromxml}{{2.1.1}{42}{pyscribus.styles}{section*.379}{}}
\newlabel{pyscribus:pyscribus.styles.RuleStyleLine.lineend_xml}{{2.1.1}{42}{pyscribus.styles}{section*.380}{}}
\newlabel{pyscribus:pyscribus.styles.RuleStyleLine.linejoin_xml}{{2.1.1}{42}{pyscribus.styles}{section*.381}{}}
\newlabel{pyscribus:pyscribus.styles.RuleStyleLine.toxml}{{2.1.1}{42}{pyscribus.styles}{section*.382}{}}
\newlabel{pyscribus:pyscribus.styles.StyleAbstract}{{2.1.1}{42}{pyscribus.styles}{section*.383}{}}
\newlabel{pyscribus:pyscribus.styles.StyleAbstract.bg_color_xml}{{2.1.1}{42}{pyscribus.styles}{section*.384}{}}
\newlabel{pyscribus:pyscribus.styles.StyleAbstract.bg_shade_xml}{{2.1.1}{42}{pyscribus.styles}{section*.385}{}}
\newlabel{pyscribus:pyscribus.styles.StyleAbstract.default_font}{{2.1.1}{42}{pyscribus.styles}{section*.386}{}}
\newlabel{pyscribus:pyscribus.styles.StyleAbstract.default_name}{{2.1.1}{42}{pyscribus.styles}{section*.387}{}}
\newlabel{pyscribus:pyscribus.styles.StyleAbstract.fcolor_xml}{{2.1.1}{42}{pyscribus.styles}{section*.388}{}}
\newlabel{pyscribus:pyscribus.styles.StyleAbstract.fromdefault}{{2.1.1}{42}{pyscribus.styles}{section*.389}{}}
\newlabel{pyscribus:pyscribus.styles.StyleAbstract.fromstyle}{{2.1.1}{42}{pyscribus.styles}{section*.390}{}}
\newlabel{pyscribus:pyscribus.styles.StyleAbstract.fromxml}{{2.1.1}{42}{pyscribus.styles}{section*.391}{}}
\newlabel{pyscribus:pyscribus.styles.StyleAbstract.fshade_xml}{{2.1.1}{42}{pyscribus.styles}{section*.392}{}}
\newlabel{pyscribus:pyscribus.styles.StyleAbstract.name_xml}{{2.1.1}{43}{pyscribus.styles}{section*.393}{}}
\newlabel{pyscribus:pyscribus.styles.StyleAbstract.parent_xml}{{2.1.1}{43}{pyscribus.styles}{section*.394}{}}
\newlabel{pyscribus:pyscribus.styles.StyleAbstract.shortcut_xml}{{2.1.1}{43}{pyscribus.styles}{section*.395}{}}
\newlabel{pyscribus:pyscribus.styles.StyleAbstract.toxml}{{2.1.1}{43}{pyscribus.styles}{section*.396}{}}
\newlabel{pyscribus:pyscribus.styles.StyleAbstract.type_xml}{{2.1.1}{43}{pyscribus.styles}{section*.397}{}}
\newlabel{pyscribus:pyscribus.styles.StyleTab}{{2.1.1}{43}{pyscribus.styles}{section*.398}{}}
\newlabel{pyscribus:pyscribus.styles.StyleTab.fromdefault}{{2.1.1}{43}{pyscribus.styles}{section*.399}{}}
\newlabel{pyscribus:pyscribus.styles.StyleTab.fromxml}{{2.1.1}{43}{pyscribus.styles}{section*.400}{}}
\newlabel{pyscribus:pyscribus.styles.StyleTab.tab_type_xml}{{2.1.1}{43}{pyscribus.styles}{section*.401}{}}
\newlabel{pyscribus:pyscribus.styles.StyleTab.toxml}{{2.1.1}{43}{pyscribus.styles}{section*.402}{}}
\newlabel{pyscribus:pyscribus.styles.TableBorder}{{2.1.1}{43}{pyscribus.styles}{section*.403}{}}
\newlabel{pyscribus:pyscribus.styles.TableBorder.fromxml}{{2.1.1}{43}{pyscribus.styles}{section*.404}{}}
\newlabel{pyscribus:pyscribus.styles.TableBorder.sides_xml}{{2.1.1}{43}{pyscribus.styles}{section*.405}{}}
\newlabel{pyscribus:pyscribus.styles.TableBorder.toxml}{{2.1.1}{43}{pyscribus.styles}{section*.406}{}}
\newlabel{pyscribus:pyscribus.styles.TableBorderLine}{{2.1.1}{43}{pyscribus.styles}{section*.407}{}}
\newlabel{pyscribus:pyscribus.styles.TableBorderLine.fromdefault}{{2.1.1}{43}{pyscribus.styles}{section*.408}{}}
\newlabel{pyscribus:pyscribus.styles.TableBorderLine.fromxml}{{2.1.1}{43}{pyscribus.styles}{section*.409}{}}
\newlabel{pyscribus:pyscribus.styles.TableBorderLine.toxml}{{2.1.1}{44}{pyscribus.styles}{section*.410}{}}
\newlabel{pyscribus:pyscribus.styles.TableStyle}{{2.1.1}{44}{pyscribus.styles}{section*.411}{}}
\newlabel{pyscribus:pyscribus.styles.TabularStyleAbstract}{{2.1.1}{44}{pyscribus.styles}{section*.412}{}}
\newlabel{pyscribus:pyscribus.styles.TabularStyleAbstract.fromxml}{{2.1.1}{44}{pyscribus.styles}{section*.413}{}}
\newlabel{pyscribus:pyscribus.styles.TabularStyleAbstract.toxml}{{2.1.1}{44}{pyscribus.styles}{section*.414}{}}
\newlabel{pyscribus:pyscribus.styles.TextDirection}{{2.1.1}{44}{pyscribus.styles}{section*.415}{}}
\newlabel{pyscribus:pyscribus.styles.TextDirection.LTR}{{2.1.1}{44}{pyscribus.styles}{section*.416}{}}
\newlabel{pyscribus:pyscribus.styles.TextDirection.RTL}{{2.1.1}{44}{pyscribus.styles}{section*.417}{}}
\newlabel{pyscribus:pyscribus.styles.fromSLA}{{2.1.1}{44}{pyscribus.styles}{section*.418}{}}
\@writefile{toc}{\contentsline {paragraph}{pyscribus.toc}{44}{paragraph*.419}\protected@file@percent }
\newlabel{pyscribus:module-pyscribus.toc}{{2.1.1}{44}{pyscribus.toc}{paragraph*.419}{}}
\newlabel{pyscribus:pyscribus-toc}{{2.1.1}{44}{pyscribus.toc}{paragraph*.419}{}}
\newlabel{pyscribus:pyscribus.toc.Section}{{2.1.1}{44}{pyscribus.toc}{section*.420}{}}
\newlabel{pyscribus:pyscribus.toc.Section.fromdefault}{{2.1.1}{44}{pyscribus.toc}{section*.421}{}}
\newlabel{pyscribus:pyscribus.toc.Section.fromxml}{{2.1.1}{44}{pyscribus.toc}{section*.422}{}}
\newlabel{pyscribus:pyscribus.toc.Section.toxml}{{2.1.1}{44}{pyscribus.toc}{section*.423}{}}
\newlabel{pyscribus:pyscribus.toc.TOC}{{2.1.1}{44}{pyscribus.toc}{section*.424}{}}
\newlabel{pyscribus:pyscribus.toc.TOC.fromdefault}{{2.1.1}{44}{pyscribus.toc}{section*.425}{}}
\newlabel{pyscribus:pyscribus.toc.TOC.fromxml}{{2.1.1}{45}{pyscribus.toc}{section*.426}{}}
\newlabel{pyscribus:pyscribus.toc.TOC.placement_to_xml}{{2.1.1}{45}{pyscribus.toc}{section*.427}{}}
\newlabel{pyscribus:pyscribus.toc.TOC.toxml}{{2.1.1}{45}{pyscribus.toc}{section*.428}{}}
\@writefile{toc}{\contentsline {paragraph}{pyscribus.printing}{45}{paragraph*.429}\protected@file@percent }
\newlabel{pyscribus:module-pyscribus.printing}{{2.1.1}{45}{pyscribus.printing}{paragraph*.429}{}}
\newlabel{pyscribus:pyscribus-printing}{{2.1.1}{45}{pyscribus.printing}{paragraph*.429}{}}
\newlabel{pyscribus:pyscribus.printing.LPI}{{2.1.1}{45}{pyscribus.printing}{section*.430}{}}
\newlabel{pyscribus:pyscribus.printing.LPI.DEFAULTS}{{2.1.1}{45}{pyscribus.printing}{section*.431}{}}
\newlabel{pyscribus:pyscribus.printing.LPI.fromdefault}{{2.1.1}{45}{pyscribus.printing}{section*.432}{}}
\newlabel{pyscribus:pyscribus.printing.LPI.fromxml}{{2.1.1}{45}{pyscribus.printing}{section*.433}{}}
\newlabel{pyscribus:pyscribus.printing.LPI.spot_xml}{{2.1.1}{45}{pyscribus.printing}{section*.434}{}}
\newlabel{pyscribus:pyscribus.printing.LPI.toxml}{{2.1.1}{45}{pyscribus.printing}{section*.435}{}}
\newlabel{pyscribus:pyscribus.printing.PDFSettings}{{2.1.1}{45}{pyscribus.printing}{section*.436}{}}
\newlabel{pyscribus:pyscribus.printing.PDFSettings.fromdefault}{{2.1.1}{45}{pyscribus.printing}{section*.437}{}}
\newlabel{pyscribus:pyscribus.printing.PDFSettings.fromxml}{{2.1.1}{45}{pyscribus.printing}{section*.438}{}}
\newlabel{pyscribus:pyscribus.printing.PDFSettings.imgcomp_method_xml}{{2.1.1}{45}{pyscribus.printing}{section*.439}{}}
\newlabel{pyscribus:pyscribus.printing.PDFSettings.imgcomp_quality_xml}{{2.1.1}{45}{pyscribus.printing}{section*.440}{}}
\newlabel{pyscribus:pyscribus.printing.PDFSettings.toxml}{{2.1.1}{45}{pyscribus.printing}{section*.441}{}}
\newlabel{pyscribus:pyscribus.printing.PrinterSettings}{{2.1.1}{46}{pyscribus.printing}{section*.442}{}}
\newlabel{pyscribus:pyscribus.printing.PrinterSettings.fromxml}{{2.1.1}{46}{pyscribus.printing}{section*.443}{}}
\newlabel{pyscribus:pyscribus.printing.PrinterSettings.toxml}{{2.1.1}{46}{pyscribus.printing}{section*.444}{}}
\@writefile{toc}{\contentsline {paragraph}{pyscribus.itemattribute}{46}{paragraph*.445}\protected@file@percent }
\newlabel{pyscribus:module-pyscribus.itemattribute}{{2.1.1}{46}{pyscribus.itemattribute}{paragraph*.445}{}}
\newlabel{pyscribus:pyscribus-itemattribute}{{2.1.1}{46}{pyscribus.itemattribute}{paragraph*.445}{}}
\newlabel{pyscribus:pyscribus.itemattribute.DocumentAttribute}{{2.1.1}{46}{pyscribus.itemattribute}{section*.446}{}}
\newlabel{pyscribus:pyscribus.itemattribute.ItemAttribute}{{2.1.1}{46}{pyscribus.itemattribute}{section*.447}{}}
\newlabel{pyscribus:pyscribus.itemattribute.ItemAttribute.as_python}{{2.1.1}{46}{pyscribus.itemattribute}{section*.448}{}}
\newlabel{pyscribus:pyscribus.itemattribute.ItemAttribute.attrib_types}{{2.1.1}{46}{pyscribus.itemattribute}{section*.449}{}}
\newlabel{pyscribus:pyscribus.itemattribute.ItemAttribute.fromdefault}{{2.1.1}{46}{pyscribus.itemattribute}{section*.450}{}}
\newlabel{pyscribus:pyscribus.itemattribute.ItemAttribute.fromxml}{{2.1.1}{46}{pyscribus.itemattribute}{section*.451}{}}
\newlabel{pyscribus:pyscribus.itemattribute.ItemAttribute.toxml}{{2.1.1}{46}{pyscribus.itemattribute}{section*.452}{}}
\newlabel{pyscribus:pyscribus.itemattribute.PageObjectAttribute}{{2.1.1}{46}{pyscribus.itemattribute}{section*.453}{}}
\@writefile{toc}{\contentsline {subsubsection}{Headless}{47}{subsubsection*.454}\protected@file@percent }
\newlabel{pyscribus:module-pyscribus.headless}{{2.1.1}{47}{Headless}{subsubsection*.454}{}}
\newlabel{pyscribus:headless}{{2.1.1}{47}{Headless}{subsubsection*.454}{}}
\newlabel{pyscribus:pyscribus.headless.run_pyh_script}{{2.1.1}{47}{Headless}{section*.455}{}}
\@writefile{toc}{\contentsline {paragraph}{Script: topdf}{47}{paragraph*.456}\protected@file@percent }
\newlabel{pyscribus:module-pyscribus.headless.scripts.topdf}{{2.1.1}{47}{Script: topdf}{paragraph*.456}{}}
\newlabel{pyscribus:script-topdf}{{2.1.1}{47}{Script: topdf}{paragraph*.456}{}}
\@writefile{toc}{\contentsline {subsubsection}{Paper sizes}{47}{subsubsection*.457}\protected@file@percent }
\newlabel{pyscribus:paper-sizes}{{2.1.1}{47}{Paper sizes}{subsubsection*.457}{}}
\@writefile{toc}{\contentsline {paragraph}{pyscribus.papers.iso216}{47}{paragraph*.458}\protected@file@percent }
\newlabel{pyscribus:module-pyscribus.papers.iso216}{{2.1.1}{47}{pyscribus.papers.iso216}{paragraph*.458}{}}
\newlabel{pyscribus:pyscribus-papers-iso216}{{2.1.1}{47}{pyscribus.papers.iso216}{paragraph*.458}{}}
\newlabel{pyscribus:pyscribus.papers.iso216.A0}{{2.1.1}{47}{pyscribus.papers.iso216}{section*.459}{}}
\newlabel{pyscribus:pyscribus.papers.iso216.A0.HEIGHT}{{2.1.1}{47}{pyscribus.papers.iso216}{section*.460}{}}
\newlabel{pyscribus:pyscribus.papers.iso216.A0.WIDTH}{{2.1.1}{47}{pyscribus.papers.iso216}{section*.461}{}}
\newlabel{pyscribus:pyscribus.papers.iso216.A1}{{2.1.1}{47}{pyscribus.papers.iso216}{section*.462}{}}
\newlabel{pyscribus:pyscribus.papers.iso216.A1.HEIGHT}{{2.1.1}{47}{pyscribus.papers.iso216}{section*.463}{}}
\newlabel{pyscribus:pyscribus.papers.iso216.A1.WIDTH}{{2.1.1}{47}{pyscribus.papers.iso216}{section*.464}{}}
\newlabel{pyscribus:pyscribus.papers.iso216.A10}{{2.1.1}{47}{pyscribus.papers.iso216}{section*.465}{}}
\newlabel{pyscribus:pyscribus.papers.iso216.A10.HEIGHT}{{2.1.1}{47}{pyscribus.papers.iso216}{section*.466}{}}
\newlabel{pyscribus:pyscribus.papers.iso216.A10.WIDTH}{{2.1.1}{47}{pyscribus.papers.iso216}{section*.467}{}}
\newlabel{pyscribus:pyscribus.papers.iso216.A2}{{2.1.1}{47}{pyscribus.papers.iso216}{section*.468}{}}
\newlabel{pyscribus:pyscribus.papers.iso216.A2.HEIGHT}{{2.1.1}{47}{pyscribus.papers.iso216}{section*.469}{}}
\newlabel{pyscribus:pyscribus.papers.iso216.A2.WIDTH}{{2.1.1}{47}{pyscribus.papers.iso216}{section*.470}{}}
\newlabel{pyscribus:pyscribus.papers.iso216.A3}{{2.1.1}{47}{pyscribus.papers.iso216}{section*.471}{}}
\newlabel{pyscribus:pyscribus.papers.iso216.A3.HEIGHT}{{2.1.1}{47}{pyscribus.papers.iso216}{section*.472}{}}
\newlabel{pyscribus:pyscribus.papers.iso216.A3.WIDTH}{{2.1.1}{47}{pyscribus.papers.iso216}{section*.473}{}}
\newlabel{pyscribus:pyscribus.papers.iso216.A4}{{2.1.1}{47}{pyscribus.papers.iso216}{section*.474}{}}
\newlabel{pyscribus:pyscribus.papers.iso216.A4.HEIGHT}{{2.1.1}{47}{pyscribus.papers.iso216}{section*.475}{}}
\newlabel{pyscribus:pyscribus.papers.iso216.A4.WIDTH}{{2.1.1}{47}{pyscribus.papers.iso216}{section*.476}{}}
\newlabel{pyscribus:pyscribus.papers.iso216.A5}{{2.1.1}{47}{pyscribus.papers.iso216}{section*.477}{}}
\newlabel{pyscribus:pyscribus.papers.iso216.A5.HEIGHT}{{2.1.1}{48}{pyscribus.papers.iso216}{section*.478}{}}
\newlabel{pyscribus:pyscribus.papers.iso216.A5.WIDTH}{{2.1.1}{48}{pyscribus.papers.iso216}{section*.479}{}}
\newlabel{pyscribus:pyscribus.papers.iso216.A6}{{2.1.1}{48}{pyscribus.papers.iso216}{section*.480}{}}
\newlabel{pyscribus:pyscribus.papers.iso216.A6.HEIGHT}{{2.1.1}{48}{pyscribus.papers.iso216}{section*.481}{}}
\newlabel{pyscribus:pyscribus.papers.iso216.A6.WIDTH}{{2.1.1}{48}{pyscribus.papers.iso216}{section*.482}{}}
\newlabel{pyscribus:pyscribus.papers.iso216.A7}{{2.1.1}{48}{pyscribus.papers.iso216}{section*.483}{}}
\newlabel{pyscribus:pyscribus.papers.iso216.A7.HEIGHT}{{2.1.1}{48}{pyscribus.papers.iso216}{section*.484}{}}
\newlabel{pyscribus:pyscribus.papers.iso216.A7.WIDTH}{{2.1.1}{48}{pyscribus.papers.iso216}{section*.485}{}}
\newlabel{pyscribus:pyscribus.papers.iso216.A8}{{2.1.1}{48}{pyscribus.papers.iso216}{section*.486}{}}
\newlabel{pyscribus:pyscribus.papers.iso216.A8.HEIGHT}{{2.1.1}{48}{pyscribus.papers.iso216}{section*.487}{}}
\newlabel{pyscribus:pyscribus.papers.iso216.A8.WIDTH}{{2.1.1}{48}{pyscribus.papers.iso216}{section*.488}{}}
\newlabel{pyscribus:pyscribus.papers.iso216.A9}{{2.1.1}{48}{pyscribus.papers.iso216}{section*.489}{}}
\newlabel{pyscribus:pyscribus.papers.iso216.A9.HEIGHT}{{2.1.1}{48}{pyscribus.papers.iso216}{section*.490}{}}
\newlabel{pyscribus:pyscribus.papers.iso216.A9.WIDTH}{{2.1.1}{48}{pyscribus.papers.iso216}{section*.491}{}}
\newlabel{pyscribus:pyscribus.papers.iso216.B0}{{2.1.1}{48}{pyscribus.papers.iso216}{section*.492}{}}
\newlabel{pyscribus:pyscribus.papers.iso216.B0.HEIGHT}{{2.1.1}{48}{pyscribus.papers.iso216}{section*.493}{}}
\newlabel{pyscribus:pyscribus.papers.iso216.B0.WIDTH}{{2.1.1}{48}{pyscribus.papers.iso216}{section*.494}{}}
\newlabel{pyscribus:pyscribus.papers.iso216.B1}{{2.1.1}{48}{pyscribus.papers.iso216}{section*.495}{}}
\newlabel{pyscribus:pyscribus.papers.iso216.B1.HEIGHT}{{2.1.1}{48}{pyscribus.papers.iso216}{section*.496}{}}
\newlabel{pyscribus:pyscribus.papers.iso216.B1.WIDTH}{{2.1.1}{48}{pyscribus.papers.iso216}{section*.497}{}}
\newlabel{pyscribus:pyscribus.papers.iso216.B10}{{2.1.1}{48}{pyscribus.papers.iso216}{section*.498}{}}
\newlabel{pyscribus:pyscribus.papers.iso216.B10.HEIGHT}{{2.1.1}{48}{pyscribus.papers.iso216}{section*.499}{}}
\newlabel{pyscribus:pyscribus.papers.iso216.B10.WIDTH}{{2.1.1}{48}{pyscribus.papers.iso216}{section*.500}{}}
\newlabel{pyscribus:pyscribus.papers.iso216.B2}{{2.1.1}{48}{pyscribus.papers.iso216}{section*.501}{}}
\newlabel{pyscribus:pyscribus.papers.iso216.B2.HEIGHT}{{2.1.1}{48}{pyscribus.papers.iso216}{section*.502}{}}
\newlabel{pyscribus:pyscribus.papers.iso216.B2.WIDTH}{{2.1.1}{48}{pyscribus.papers.iso216}{section*.503}{}}
\newlabel{pyscribus:pyscribus.papers.iso216.B3}{{2.1.1}{48}{pyscribus.papers.iso216}{section*.504}{}}
\newlabel{pyscribus:pyscribus.papers.iso216.B3.HEIGHT}{{2.1.1}{48}{pyscribus.papers.iso216}{section*.505}{}}
\newlabel{pyscribus:pyscribus.papers.iso216.B3.WIDTH}{{2.1.1}{48}{pyscribus.papers.iso216}{section*.506}{}}
\newlabel{pyscribus:pyscribus.papers.iso216.B4}{{2.1.1}{48}{pyscribus.papers.iso216}{section*.507}{}}
\newlabel{pyscribus:pyscribus.papers.iso216.B4.HEIGHT}{{2.1.1}{48}{pyscribus.papers.iso216}{section*.508}{}}
\newlabel{pyscribus:pyscribus.papers.iso216.B4.WIDTH}{{2.1.1}{48}{pyscribus.papers.iso216}{section*.509}{}}
\newlabel{pyscribus:pyscribus.papers.iso216.B5}{{2.1.1}{48}{pyscribus.papers.iso216}{section*.510}{}}
\newlabel{pyscribus:pyscribus.papers.iso216.B5.HEIGHT}{{2.1.1}{48}{pyscribus.papers.iso216}{section*.511}{}}
\newlabel{pyscribus:pyscribus.papers.iso216.B5.WIDTH}{{2.1.1}{48}{pyscribus.papers.iso216}{section*.512}{}}
\newlabel{pyscribus:pyscribus.papers.iso216.B6}{{2.1.1}{48}{pyscribus.papers.iso216}{section*.513}{}}
\newlabel{pyscribus:pyscribus.papers.iso216.B6.HEIGHT}{{2.1.1}{48}{pyscribus.papers.iso216}{section*.514}{}}
\newlabel{pyscribus:pyscribus.papers.iso216.B6.WIDTH}{{2.1.1}{49}{pyscribus.papers.iso216}{section*.515}{}}
\newlabel{pyscribus:pyscribus.papers.iso216.B7}{{2.1.1}{49}{pyscribus.papers.iso216}{section*.516}{}}
\newlabel{pyscribus:pyscribus.papers.iso216.B7.HEIGHT}{{2.1.1}{49}{pyscribus.papers.iso216}{section*.517}{}}
\newlabel{pyscribus:pyscribus.papers.iso216.B7.WIDTH}{{2.1.1}{49}{pyscribus.papers.iso216}{section*.518}{}}
\newlabel{pyscribus:pyscribus.papers.iso216.B8}{{2.1.1}{49}{pyscribus.papers.iso216}{section*.519}{}}
\newlabel{pyscribus:pyscribus.papers.iso216.B8.HEIGHT}{{2.1.1}{49}{pyscribus.papers.iso216}{section*.520}{}}
\newlabel{pyscribus:pyscribus.papers.iso216.B8.WIDTH}{{2.1.1}{49}{pyscribus.papers.iso216}{section*.521}{}}
\newlabel{pyscribus:pyscribus.papers.iso216.B9}{{2.1.1}{49}{pyscribus.papers.iso216}{section*.522}{}}
\newlabel{pyscribus:pyscribus.papers.iso216.B9.HEIGHT}{{2.1.1}{49}{pyscribus.papers.iso216}{section*.523}{}}
\newlabel{pyscribus:pyscribus.papers.iso216.B9.WIDTH}{{2.1.1}{49}{pyscribus.papers.iso216}{section*.524}{}}
\@writefile{toc}{\contentsline {paragraph}{pyscribus.papers.iso269}{49}{paragraph*.525}\protected@file@percent }
\newlabel{pyscribus:module-pyscribus.papers.iso269}{{2.1.1}{49}{pyscribus.papers.iso269}{paragraph*.525}{}}
\newlabel{pyscribus:pyscribus-papers-iso269}{{2.1.1}{49}{pyscribus.papers.iso269}{paragraph*.525}{}}
\newlabel{pyscribus:pyscribus.papers.iso269.C0}{{2.1.1}{49}{pyscribus.papers.iso269}{section*.526}{}}
\newlabel{pyscribus:pyscribus.papers.iso269.C0.HEIGHT}{{2.1.1}{49}{pyscribus.papers.iso269}{section*.527}{}}
\newlabel{pyscribus:pyscribus.papers.iso269.C0.WIDTH}{{2.1.1}{49}{pyscribus.papers.iso269}{section*.528}{}}
\newlabel{pyscribus:pyscribus.papers.iso269.C1}{{2.1.1}{49}{pyscribus.papers.iso269}{section*.529}{}}
\newlabel{pyscribus:pyscribus.papers.iso269.C1.HEIGHT}{{2.1.1}{49}{pyscribus.papers.iso269}{section*.530}{}}
\newlabel{pyscribus:pyscribus.papers.iso269.C1.WIDTH}{{2.1.1}{49}{pyscribus.papers.iso269}{section*.531}{}}
\newlabel{pyscribus:pyscribus.papers.iso269.C10}{{2.1.1}{49}{pyscribus.papers.iso269}{section*.532}{}}
\newlabel{pyscribus:pyscribus.papers.iso269.C10.HEIGHT}{{2.1.1}{49}{pyscribus.papers.iso269}{section*.533}{}}
\newlabel{pyscribus:pyscribus.papers.iso269.C10.WIDTH}{{2.1.1}{49}{pyscribus.papers.iso269}{section*.534}{}}
\newlabel{pyscribus:pyscribus.papers.iso269.C2}{{2.1.1}{49}{pyscribus.papers.iso269}{section*.535}{}}
\newlabel{pyscribus:pyscribus.papers.iso269.C2.HEIGHT}{{2.1.1}{49}{pyscribus.papers.iso269}{section*.536}{}}
\newlabel{pyscribus:pyscribus.papers.iso269.C2.WIDTH}{{2.1.1}{49}{pyscribus.papers.iso269}{section*.537}{}}
\newlabel{pyscribus:pyscribus.papers.iso269.C3}{{2.1.1}{49}{pyscribus.papers.iso269}{section*.538}{}}
\newlabel{pyscribus:pyscribus.papers.iso269.C3.HEIGHT}{{2.1.1}{49}{pyscribus.papers.iso269}{section*.539}{}}
\newlabel{pyscribus:pyscribus.papers.iso269.C3.WIDTH}{{2.1.1}{49}{pyscribus.papers.iso269}{section*.540}{}}
\newlabel{pyscribus:pyscribus.papers.iso269.C4}{{2.1.1}{49}{pyscribus.papers.iso269}{section*.541}{}}
\newlabel{pyscribus:pyscribus.papers.iso269.C4.HEIGHT}{{2.1.1}{49}{pyscribus.papers.iso269}{section*.542}{}}
\newlabel{pyscribus:pyscribus.papers.iso269.C4.WIDTH}{{2.1.1}{49}{pyscribus.papers.iso269}{section*.543}{}}
\newlabel{pyscribus:pyscribus.papers.iso269.C5}{{2.1.1}{49}{pyscribus.papers.iso269}{section*.544}{}}
\newlabel{pyscribus:pyscribus.papers.iso269.C5.HEIGHT}{{2.1.1}{49}{pyscribus.papers.iso269}{section*.545}{}}
\newlabel{pyscribus:pyscribus.papers.iso269.C5.WIDTH}{{2.1.1}{49}{pyscribus.papers.iso269}{section*.546}{}}
\newlabel{pyscribus:pyscribus.papers.iso269.C6}{{2.1.1}{49}{pyscribus.papers.iso269}{section*.547}{}}
\newlabel{pyscribus:pyscribus.papers.iso269.C6.HEIGHT}{{2.1.1}{49}{pyscribus.papers.iso269}{section*.548}{}}
\newlabel{pyscribus:pyscribus.papers.iso269.C6.WIDTH}{{2.1.1}{49}{pyscribus.papers.iso269}{section*.549}{}}
\newlabel{pyscribus:pyscribus.papers.iso269.C7}{{2.1.1}{50}{pyscribus.papers.iso269}{section*.550}{}}
\newlabel{pyscribus:pyscribus.papers.iso269.C7.HEIGHT}{{2.1.1}{50}{pyscribus.papers.iso269}{section*.551}{}}
\newlabel{pyscribus:pyscribus.papers.iso269.C7.WIDTH}{{2.1.1}{50}{pyscribus.papers.iso269}{section*.552}{}}
\newlabel{pyscribus:pyscribus.papers.iso269.C76}{{2.1.1}{50}{pyscribus.papers.iso269}{section*.553}{}}
\newlabel{pyscribus:pyscribus.papers.iso269.C76.HEIGHT}{{2.1.1}{50}{pyscribus.papers.iso269}{section*.554}{}}
\newlabel{pyscribus:pyscribus.papers.iso269.C76.WIDTH}{{2.1.1}{50}{pyscribus.papers.iso269}{section*.555}{}}
\newlabel{pyscribus:pyscribus.papers.iso269.C8}{{2.1.1}{50}{pyscribus.papers.iso269}{section*.556}{}}
\newlabel{pyscribus:pyscribus.papers.iso269.C8.HEIGHT}{{2.1.1}{50}{pyscribus.papers.iso269}{section*.557}{}}
\newlabel{pyscribus:pyscribus.papers.iso269.C8.WIDTH}{{2.1.1}{50}{pyscribus.papers.iso269}{section*.558}{}}
\newlabel{pyscribus:pyscribus.papers.iso269.C9}{{2.1.1}{50}{pyscribus.papers.iso269}{section*.559}{}}
\newlabel{pyscribus:pyscribus.papers.iso269.C9.HEIGHT}{{2.1.1}{50}{pyscribus.papers.iso269}{section*.560}{}}
\newlabel{pyscribus:pyscribus.papers.iso269.C9.WIDTH}{{2.1.1}{50}{pyscribus.papers.iso269}{section*.561}{}}
\newlabel{pyscribus:pyscribus.papers.iso269.DL}{{2.1.1}{50}{pyscribus.papers.iso269}{section*.562}{}}
\newlabel{pyscribus:pyscribus.papers.iso269.DL.HEIGHT}{{2.1.1}{50}{pyscribus.papers.iso269}{section*.563}{}}
\newlabel{pyscribus:pyscribus.papers.iso269.DL.WIDTH}{{2.1.1}{50}{pyscribus.papers.iso269}{section*.564}{}}
\@writefile{toc}{\contentsline {paragraph}{pyscribus.papers.iso217}{50}{paragraph*.565}\protected@file@percent }
\newlabel{pyscribus:module-pyscribus.papers.iso217}{{2.1.1}{50}{pyscribus.papers.iso217}{paragraph*.565}{}}
\newlabel{pyscribus:pyscribus-papers-iso217}{{2.1.1}{50}{pyscribus.papers.iso217}{paragraph*.565}{}}
\@writefile{toc}{\contentsline {paragraph}{pyscribus.papers.afnor}{50}{paragraph*.566}\protected@file@percent }
\newlabel{pyscribus:module-pyscribus.papers.afnor}{{2.1.1}{50}{pyscribus.papers.afnor}{paragraph*.566}{}}
\newlabel{pyscribus:pyscribus-papers-afnor}{{2.1.1}{50}{pyscribus.papers.afnor}{paragraph*.566}{}}
\newlabel{pyscribus:pyscribus.papers.afnor.Carre}{{2.1.1}{50}{pyscribus.papers.afnor}{section*.567}{}}
\newlabel{pyscribus:pyscribus.papers.afnor.Carre.HEIGHT}{{2.1.1}{50}{pyscribus.papers.afnor}{section*.568}{}}
\newlabel{pyscribus:pyscribus.papers.afnor.Carre.WIDTH}{{2.1.1}{50}{pyscribus.papers.afnor}{section*.569}{}}
\newlabel{pyscribus:pyscribus.papers.afnor.Cavalier}{{2.1.1}{50}{pyscribus.papers.afnor}{section*.570}{}}
\newlabel{pyscribus:pyscribus.papers.afnor.Cavalier.HEIGHT}{{2.1.1}{50}{pyscribus.papers.afnor}{section*.571}{}}
\newlabel{pyscribus:pyscribus.papers.afnor.Cavalier.WIDTH}{{2.1.1}{50}{pyscribus.papers.afnor}{section*.572}{}}
\newlabel{pyscribus:pyscribus.papers.afnor.Cloche}{{2.1.1}{50}{pyscribus.papers.afnor}{section*.573}{}}
\newlabel{pyscribus:pyscribus.papers.afnor.Cloche.HEIGHT}{{2.1.1}{50}{pyscribus.papers.afnor}{section*.574}{}}
\newlabel{pyscribus:pyscribus.papers.afnor.Cloche.WIDTH}{{2.1.1}{50}{pyscribus.papers.afnor}{section*.575}{}}
\newlabel{pyscribus:pyscribus.papers.afnor.ColombierAffiche}{{2.1.1}{50}{pyscribus.papers.afnor}{section*.576}{}}
\newlabel{pyscribus:pyscribus.papers.afnor.ColombierAffiche.HEIGHT}{{2.1.1}{50}{pyscribus.papers.afnor}{section*.577}{}}
\newlabel{pyscribus:pyscribus.papers.afnor.ColombierAffiche.WIDTH}{{2.1.1}{50}{pyscribus.papers.afnor}{section*.578}{}}
\newlabel{pyscribus:pyscribus.papers.afnor.ColombierCommercial}{{2.1.1}{50}{pyscribus.papers.afnor}{section*.579}{}}
\newlabel{pyscribus:pyscribus.papers.afnor.ColombierCommercial.HEIGHT}{{2.1.1}{50}{pyscribus.papers.afnor}{section*.580}{}}
\newlabel{pyscribus:pyscribus.papers.afnor.ColombierCommercial.WIDTH}{{2.1.1}{51}{pyscribus.papers.afnor}{section*.581}{}}
\newlabel{pyscribus:pyscribus.papers.afnor.Coquille}{{2.1.1}{51}{pyscribus.papers.afnor}{section*.582}{}}
\newlabel{pyscribus:pyscribus.papers.afnor.Coquille.HEIGHT}{{2.1.1}{51}{pyscribus.papers.afnor}{section*.583}{}}
\newlabel{pyscribus:pyscribus.papers.afnor.Coquille.WIDTH}{{2.1.1}{51}{pyscribus.papers.afnor}{section*.584}{}}
\newlabel{pyscribus:pyscribus.papers.afnor.CouronneEcriture}{{2.1.1}{51}{pyscribus.papers.afnor}{section*.585}{}}
\newlabel{pyscribus:pyscribus.papers.afnor.CouronneEcriture.HEIGHT}{{2.1.1}{51}{pyscribus.papers.afnor}{section*.586}{}}
\newlabel{pyscribus:pyscribus.papers.afnor.CouronneEcriture.WIDTH}{{2.1.1}{51}{pyscribus.papers.afnor}{section*.587}{}}
\newlabel{pyscribus:pyscribus.papers.afnor.CouronneEdition}{{2.1.1}{51}{pyscribus.papers.afnor}{section*.588}{}}
\newlabel{pyscribus:pyscribus.papers.afnor.CouronneEdition.HEIGHT}{{2.1.1}{51}{pyscribus.papers.afnor}{section*.589}{}}
\newlabel{pyscribus:pyscribus.papers.afnor.CouronneEdition.WIDTH}{{2.1.1}{51}{pyscribus.papers.afnor}{section*.590}{}}
\newlabel{pyscribus:pyscribus.papers.afnor.DemiRaisin}{{2.1.1}{51}{pyscribus.papers.afnor}{section*.591}{}}
\newlabel{pyscribus:pyscribus.papers.afnor.DemiRaisin.HEIGHT}{{2.1.1}{51}{pyscribus.papers.afnor}{section*.592}{}}
\newlabel{pyscribus:pyscribus.papers.afnor.DemiRaisin.WIDTH}{{2.1.1}{51}{pyscribus.papers.afnor}{section*.593}{}}
\newlabel{pyscribus:pyscribus.papers.afnor.DoubleRaisin}{{2.1.1}{51}{pyscribus.papers.afnor}{section*.594}{}}
\newlabel{pyscribus:pyscribus.papers.afnor.DoubleRaisin.HEIGHT}{{2.1.1}{51}{pyscribus.papers.afnor}{section*.595}{}}
\newlabel{pyscribus:pyscribus.papers.afnor.DoubleRaisin.WIDTH}{{2.1.1}{51}{pyscribus.papers.afnor}{section*.596}{}}
\newlabel{pyscribus:pyscribus.papers.afnor.Ecolier}{{2.1.1}{51}{pyscribus.papers.afnor}{section*.597}{}}
\newlabel{pyscribus:pyscribus.papers.afnor.Ecolier.HEIGHT}{{2.1.1}{51}{pyscribus.papers.afnor}{section*.598}{}}
\newlabel{pyscribus:pyscribus.papers.afnor.Ecolier.WIDTH}{{2.1.1}{51}{pyscribus.papers.afnor}{section*.599}{}}
\newlabel{pyscribus:pyscribus.papers.afnor.Ecu}{{2.1.1}{51}{pyscribus.papers.afnor}{section*.600}{}}
\newlabel{pyscribus:pyscribus.papers.afnor.Ecu.HEIGHT}{{2.1.1}{51}{pyscribus.papers.afnor}{section*.601}{}}
\newlabel{pyscribus:pyscribus.papers.afnor.Ecu.WIDTH}{{2.1.1}{51}{pyscribus.papers.afnor}{section*.602}{}}
\newlabel{pyscribus:pyscribus.papers.afnor.GrandAigle}{{2.1.1}{51}{pyscribus.papers.afnor}{section*.603}{}}
\newlabel{pyscribus:pyscribus.papers.afnor.GrandAigle.HEIGHT}{{2.1.1}{51}{pyscribus.papers.afnor}{section*.604}{}}
\newlabel{pyscribus:pyscribus.papers.afnor.GrandAigle.WIDTH}{{2.1.1}{51}{pyscribus.papers.afnor}{section*.605}{}}
\newlabel{pyscribus:pyscribus.papers.afnor.GrandJesus}{{2.1.1}{51}{pyscribus.papers.afnor}{section*.606}{}}
\newlabel{pyscribus:pyscribus.papers.afnor.GrandJesus.HEIGHT}{{2.1.1}{51}{pyscribus.papers.afnor}{section*.607}{}}
\newlabel{pyscribus:pyscribus.papers.afnor.GrandJesus.WIDTH}{{2.1.1}{51}{pyscribus.papers.afnor}{section*.608}{}}
\newlabel{pyscribus:pyscribus.papers.afnor.GrandMonde}{{2.1.1}{51}{pyscribus.papers.afnor}{section*.609}{}}
\newlabel{pyscribus:pyscribus.papers.afnor.GrandMonde.HEIGHT}{{2.1.1}{51}{pyscribus.papers.afnor}{section*.610}{}}
\newlabel{pyscribus:pyscribus.papers.afnor.GrandMonde.WIDTH}{{2.1.1}{51}{pyscribus.papers.afnor}{section*.611}{}}
\newlabel{pyscribus:pyscribus.papers.afnor.Jesus}{{2.1.1}{51}{pyscribus.papers.afnor}{section*.612}{}}
\newlabel{pyscribus:pyscribus.papers.afnor.Jesus.HEIGHT}{{2.1.1}{51}{pyscribus.papers.afnor}{section*.613}{}}
\newlabel{pyscribus:pyscribus.papers.afnor.Jesus.WIDTH}{{2.1.1}{51}{pyscribus.papers.afnor}{section*.614}{}}
\newlabel{pyscribus:pyscribus.papers.afnor.PetitAigle}{{2.1.1}{51}{pyscribus.papers.afnor}{section*.615}{}}
\newlabel{pyscribus:pyscribus.papers.afnor.PetitAigle.HEIGHT}{{2.1.1}{51}{pyscribus.papers.afnor}{section*.616}{}}
\newlabel{pyscribus:pyscribus.papers.afnor.PetitAigle.WIDTH}{{2.1.1}{51}{pyscribus.papers.afnor}{section*.617}{}}
\newlabel{pyscribus:pyscribus.papers.afnor.PetitJesus}{{2.1.1}{51}{pyscribus.papers.afnor}{section*.618}{}}
\newlabel{pyscribus:pyscribus.papers.afnor.PetitJesus.HEIGHT}{{2.1.1}{52}{pyscribus.papers.afnor}{section*.619}{}}
\newlabel{pyscribus:pyscribus.papers.afnor.PetitJesus.WIDTH}{{2.1.1}{52}{pyscribus.papers.afnor}{section*.620}{}}
\newlabel{pyscribus:pyscribus.papers.afnor.Pot}{{2.1.1}{52}{pyscribus.papers.afnor}{section*.621}{}}
\newlabel{pyscribus:pyscribus.papers.afnor.Pot.HEIGHT}{{2.1.1}{52}{pyscribus.papers.afnor}{section*.622}{}}
\newlabel{pyscribus:pyscribus.papers.afnor.Pot.WIDTH}{{2.1.1}{52}{pyscribus.papers.afnor}{section*.623}{}}
\newlabel{pyscribus:pyscribus.papers.afnor.Raisin}{{2.1.1}{52}{pyscribus.papers.afnor}{section*.624}{}}
\newlabel{pyscribus:pyscribus.papers.afnor.Raisin.HEIGHT}{{2.1.1}{52}{pyscribus.papers.afnor}{section*.625}{}}
\newlabel{pyscribus:pyscribus.papers.afnor.Raisin.WIDTH}{{2.1.1}{52}{pyscribus.papers.afnor}{section*.626}{}}
\newlabel{pyscribus:pyscribus.papers.afnor.Roberto}{{2.1.1}{52}{pyscribus.papers.afnor}{section*.627}{}}
\newlabel{pyscribus:pyscribus.papers.afnor.Roberto.HEIGHT}{{2.1.1}{52}{pyscribus.papers.afnor}{section*.628}{}}
\newlabel{pyscribus:pyscribus.papers.afnor.Roberto.WIDTH}{{2.1.1}{52}{pyscribus.papers.afnor}{section*.629}{}}
\newlabel{pyscribus:pyscribus.papers.afnor.Soleil}{{2.1.1}{52}{pyscribus.papers.afnor}{section*.630}{}}
\newlabel{pyscribus:pyscribus.papers.afnor.Soleil.HEIGHT}{{2.1.1}{52}{pyscribus.papers.afnor}{section*.631}{}}
\newlabel{pyscribus:pyscribus.papers.afnor.Soleil.WIDTH}{{2.1.1}{52}{pyscribus.papers.afnor}{section*.632}{}}
\newlabel{pyscribus:pyscribus.papers.afnor.Telliere}{{2.1.1}{52}{pyscribus.papers.afnor}{section*.633}{}}
\newlabel{pyscribus:pyscribus.papers.afnor.Telliere.HEIGHT}{{2.1.1}{52}{pyscribus.papers.afnor}{section*.634}{}}
\newlabel{pyscribus:pyscribus.papers.afnor.Telliere.WIDTH}{{2.1.1}{52}{pyscribus.papers.afnor}{section*.635}{}}
\newlabel{pyscribus:pyscribus.papers.afnor.Univers}{{2.1.1}{52}{pyscribus.papers.afnor}{section*.636}{}}
\newlabel{pyscribus:pyscribus.papers.afnor.Univers.HEIGHT}{{2.1.1}{52}{pyscribus.papers.afnor}{section*.637}{}}
\newlabel{pyscribus:pyscribus.papers.afnor.Univers.WIDTH}{{2.1.1}{52}{pyscribus.papers.afnor}{section*.638}{}}
\@writefile{toc}{\contentsline {paragraph}{pyscribus.papers.ansi}{52}{paragraph*.639}\protected@file@percent }
\newlabel{pyscribus:module-pyscribus.papers.ansi}{{2.1.1}{52}{pyscribus.papers.ansi}{paragraph*.639}{}}
\newlabel{pyscribus:pyscribus-papers-ansi}{{2.1.1}{52}{pyscribus.papers.ansi}{paragraph*.639}{}}
\newlabel{pyscribus:pyscribus.papers.ansi.A}{{2.1.1}{52}{pyscribus.papers.ansi}{section*.640}{}}
\newlabel{pyscribus:pyscribus.papers.ansi.A.HEIGHT}{{2.1.1}{52}{pyscribus.papers.ansi}{section*.641}{}}
\newlabel{pyscribus:pyscribus.papers.ansi.A.WIDTH}{{2.1.1}{52}{pyscribus.papers.ansi}{section*.642}{}}
\newlabel{pyscribus:pyscribus.papers.ansi.B}{{2.1.1}{52}{pyscribus.papers.ansi}{section*.643}{}}
\newlabel{pyscribus:pyscribus.papers.ansi.B.HEIGHT}{{2.1.1}{52}{pyscribus.papers.ansi}{section*.644}{}}
\newlabel{pyscribus:pyscribus.papers.ansi.B.WIDTH}{{2.1.1}{52}{pyscribus.papers.ansi}{section*.645}{}}
\newlabel{pyscribus:pyscribus.papers.ansi.C}{{2.1.1}{52}{pyscribus.papers.ansi}{section*.646}{}}
\newlabel{pyscribus:pyscribus.papers.ansi.C.HEIGHT}{{2.1.1}{52}{pyscribus.papers.ansi}{section*.647}{}}
\newlabel{pyscribus:pyscribus.papers.ansi.C.WIDTH}{{2.1.1}{52}{pyscribus.papers.ansi}{section*.648}{}}
\newlabel{pyscribus:pyscribus.papers.ansi.D}{{2.1.1}{52}{pyscribus.papers.ansi}{section*.649}{}}
\newlabel{pyscribus:pyscribus.papers.ansi.D.HEIGHT}{{2.1.1}{52}{pyscribus.papers.ansi}{section*.650}{}}
\newlabel{pyscribus:pyscribus.papers.ansi.D.WIDTH}{{2.1.1}{52}{pyscribus.papers.ansi}{section*.651}{}}
\newlabel{pyscribus:pyscribus.papers.ansi.E}{{2.1.1}{52}{pyscribus.papers.ansi}{section*.652}{}}
\newlabel{pyscribus:pyscribus.papers.ansi.E.HEIGHT}{{2.1.1}{53}{pyscribus.papers.ansi}{section*.653}{}}
\newlabel{pyscribus:pyscribus.papers.ansi.E.WIDTH}{{2.1.1}{53}{pyscribus.papers.ansi}{section*.654}{}}
\newlabel{pyscribus:pyscribus.papers.ansi.Letter}{{2.1.1}{53}{pyscribus.papers.ansi}{section*.655}{}}
\newlabel{pyscribus:pyscribus.papers.ansi.Letter.HEIGHT}{{2.1.1}{53}{pyscribus.papers.ansi}{section*.656}{}}
\newlabel{pyscribus:pyscribus.papers.ansi.Letter.WIDTH}{{2.1.1}{53}{pyscribus.papers.ansi}{section*.657}{}}
\@writefile{toc}{\contentsline {subsection}{\numberline {2.1.2}Extras packages}{53}{subsection.2.1.2}\protected@file@percent }
\newlabel{extra:extras-packages}{{2.1.2}{53}{Extras packages}{subsection.2.1.2}{}}
\newlabel{extra::doc}{{2.1.2}{53}{Extras packages}{subsection.2.1.2}{}}
\@writefile{toc}{\contentsline {subsubsection}{pyscribus.extra.wireframe}{53}{subsubsection*.658}\protected@file@percent }
\newlabel{extra:module-pyscribus.extra.wireframe}{{2.1.2}{53}{pyscribus.extra.wireframe}{subsubsection*.658}{}}
\newlabel{extra:pyscribus-extra-wireframe}{{2.1.2}{53}{pyscribus.extra.wireframe}{subsubsection*.658}{}}
\newlabel{extra:pyscribus.extra.wireframe.Wireframe}{{2.1.2}{53}{pyscribus.extra.wireframe}{section*.659}{}}
\newlabel{extra:pyscribus.extra.wireframe.Wireframe.append}{{2.1.2}{53}{pyscribus.extra.wireframe}{section*.660}{}}
\newlabel{extra:pyscribus.extra.wireframe.Wireframe.draw}{{2.1.2}{53}{pyscribus.extra.wireframe}{section*.661}{}}
\newlabel{extra:pyscribus.extra.wireframe.Wireframe.from_sla}{{2.1.2}{53}{pyscribus.extra.wireframe}{section*.662}{}}
\newlabel{extra:pyscribus.extra.wireframe.Wireframe.stylesheet}{{2.1.2}{53}{pyscribus.extra.wireframe}{section*.663}{}}
\newlabel{extra:pyscribus.extra.wireframe.WireframeObject}{{2.1.2}{53}{pyscribus.extra.wireframe}{section*.664}{}}
\newlabel{extra:pyscribus.extra.wireframe.WireframeObject.draw_on_canvas}{{2.1.2}{53}{pyscribus.extra.wireframe}{section*.665}{}}
\newlabel{extra:pyscribus.extra.wireframe.WireframeObject.from_object}{{2.1.2}{53}{pyscribus.extra.wireframe}{section*.666}{}}
\@writefile{toc}{\contentsline {chapter}{\numberline {3}Scribus SLA specification improvements}{55}{chapter.3}\protected@file@percent }
\@writefile{lof}{\addvspace {10\p@ }}
\@writefile{lot}{\addvspace {10\p@ }}
\newlabel{index:scribus-sla-specification-improvements}{{3}{55}{Scribus SLA specification improvements}{chapter.3}{}}
\@writefile{toc}{\contentsline {section}{\numberline {3.1}{[}EN{]} SLA document\sphinxhyphen {}able attributes}{55}{section.3.1}\protected@file@percent }
\newlabel{articles/en/spec:en-sla-document-able-attributes}{{3.1}{55}{{[}EN{]} SLA document\sphinxhyphen {}able attributes}{section.3.1}{}}
\newlabel{articles/en/spec::doc}{{3.1}{55}{{[}EN{]} SLA document\sphinxhyphen {}able attributes}{section.3.1}{}}
\@writefile{toc}{\contentsline {subsection}{\numberline {3.1.1}DOCUMENT}{55}{subsection.3.1.1}\protected@file@percent }
\newlabel{articles/en/spec:document}{{3.1.1}{55}{DOCUMENT}{subsection.3.1.1}{}}
\@writefile{toc}{\contentsline {subsection}{\numberline {3.1.2}DOCUMENT/LAYERS}{55}{subsection.3.1.2}\protected@file@percent }
\newlabel{articles/en/spec:document-layers}{{3.1.2}{55}{DOCUMENT/LAYERS}{subsection.3.1.2}{}}
\@writefile{toc}{\contentsline {subsection}{\numberline {3.1.3}DOCUMENT/CHARSTYLE}{55}{subsection.3.1.3}\protected@file@percent }
\newlabel{articles/en/spec:document-charstyle}{{3.1.3}{55}{DOCUMENT/CHARSTYLE}{subsection.3.1.3}{}}
\@writefile{toc}{\contentsline {subsection}{\numberline {3.1.4}DOCUMENT/Sections}{55}{subsection.3.1.4}\protected@file@percent }
\newlabel{articles/en/spec:document-sections}{{3.1.4}{55}{DOCUMENT/Sections}{subsection.3.1.4}{}}
\@writefile{toc}{\contentsline {subsection}{\numberline {3.1.5}DOCUMENT/PAGEOBJECT}{55}{subsection.3.1.5}\protected@file@percent }
\newlabel{articles/en/spec:document-pageobject}{{3.1.5}{55}{DOCUMENT/PAGEOBJECT}{subsection.3.1.5}{}}
\@writefile{toc}{\contentsline {subsection}{\numberline {3.1.6}Notes}{56}{subsection.3.1.6}\protected@file@percent }
\newlabel{articles/en/spec:notes}{{3.1.6}{56}{Notes}{subsection.3.1.6}{}}
\@writefile{toc}{\contentsline {subsection}{\numberline {3.1.7}Corrections}{56}{subsection.3.1.7}\protected@file@percent }
\newlabel{articles/en/spec:corrections}{{3.1.7}{56}{Corrections}{subsection.3.1.7}{}}
\@writefile{toc}{\contentsline {subsection}{\numberline {3.1.8}Notable things}{56}{subsection.3.1.8}\protected@file@percent }
\newlabel{articles/en/spec:notable-things}{{3.1.8}{56}{Notable things}{subsection.3.1.8}{}}
\@writefile{toc}{\contentsline {section}{\numberline {3.2}{[}EN{]} SLA’s enhancement suggestions}{56}{section.3.2}\protected@file@percent }
\newlabel{articles/en/spec-suggestions:en-sla-s-enhancement-suggestions}{{3.2}{56}{{[}EN{]} SLA’s enhancement suggestions}{section.3.2}{}}
\newlabel{articles/en/spec-suggestions::doc}{{3.2}{56}{{[}EN{]} SLA’s enhancement suggestions}{section.3.2}{}}
\@writefile{toc}{\contentsline {subsection}{\numberline {3.2.1}\# 1}{56}{subsection.3.2.1}\protected@file@percent }
\newlabel{articles/en/spec-suggestions:id1}{{3.2.1}{56}{\# 1}{subsection.3.2.1}{}}
\@writefile{toc}{\contentsline {subsubsection}{Discussion}{56}{subsubsection*.667}\protected@file@percent }
\newlabel{articles/en/spec-suggestions:discussion}{{3.2.1}{56}{Discussion}{subsubsection*.667}{}}
\@writefile{toc}{\contentsline {subsection}{\numberline {3.2.2}\# 2}{56}{subsection.3.2.2}\protected@file@percent }
\newlabel{articles/en/spec-suggestions:id2}{{3.2.2}{56}{\# 2}{subsection.3.2.2}{}}
\@writefile{toc}{\contentsline {subsubsection}{Discussion}{56}{subsubsection*.668}\protected@file@percent }
\newlabel{articles/en/spec-suggestions:id3}{{3.2.2}{56}{Discussion}{subsubsection*.668}{}}
\@writefile{toc}{\contentsline {subsection}{\numberline {3.2.3}\# 3}{56}{subsection.3.2.3}\protected@file@percent }
\newlabel{articles/en/spec-suggestions:id4}{{3.2.3}{56}{\# 3}{subsection.3.2.3}{}}
\@writefile{toc}{\contentsline {subsection}{\numberline {3.2.4}\# 4}{56}{subsection.3.2.4}\protected@file@percent }
\newlabel{articles/en/spec-suggestions:id5}{{3.2.4}{56}{\# 4}{subsection.3.2.4}{}}
\@writefile{toc}{\contentsline {subsubsection}{Discussion}{56}{subsubsection*.669}\protected@file@percent }
\newlabel{articles/en/spec-suggestions:id6}{{3.2.4}{56}{Discussion}{subsubsection*.669}{}}
\@writefile{toc}{\contentsline {chapter}{\numberline {4}Appendix}{57}{chapter.4}\protected@file@percent }
\@writefile{lof}{\addvspace {10\p@ }}
\@writefile{lot}{\addvspace {10\p@ }}
\newlabel{index:appendix}{{4}{57}{Appendix}{chapter.4}{}}
\@writefile{toc}{\contentsline {section}{\numberline {4.1}Credits}{57}{section.4.1}\protected@file@percent }
\newlabel{credits:credits}{{4.1}{57}{Credits}{section.4.1}{}}
\newlabel{credits::doc}{{4.1}{57}{Credits}{section.4.1}{}}
\@writefile{toc}{\contentsline {subsection}{\numberline {4.1.1}Logo}{57}{subsection.4.1.1}\protected@file@percent }
\newlabel{credits:logo}{{4.1.1}{57}{Logo}{subsection.4.1.1}{}}
\@writefile{toc}{\contentsline {subsection}{\numberline {4.1.2}In example files}{57}{subsection.4.1.2}\protected@file@percent }
\newlabel{credits:in-example-files}{{4.1.2}{57}{In example files}{subsection.4.1.2}{}}
\@writefile{toc}{\contentsline {subsubsection}{Wireframe}{57}{subsubsection*.670}\protected@file@percent }
\newlabel{credits:wireframe}{{4.1.2}{57}{Wireframe}{subsubsection*.670}{}}
\@writefile{toc}{\contentsline {section}{\numberline {4.2}Acknowledgements}{57}{section.4.2}\protected@file@percent }
\newlabel{thanks:acknowledgements}{{4.2}{57}{Acknowledgements}{section.4.2}{}}
\newlabel{thanks::doc}{{4.2}{57}{Acknowledgements}{section.4.2}{}}
\@writefile{toc}{\contentsline {chapter}{\numberline {5}Indices and tables}{59}{chapter.5}\protected@file@percent }
\@writefile{lof}{\addvspace {10\p@ }}
\@writefile{lot}{\addvspace {10\p@ }}
\newlabel{index:indices-and-tables}{{5}{59}{Indices and tables}{chapter.5}{}}
\@writefile{toc}{\contentsline {chapter}{Python Module Index}{61}{section*.671}\protected@file@percent }
\@writefile{toc}{\contentsline {chapter}{Index}{63}{section*.672}\protected@file@percent }
\gdef \@abspage@last{71}
